<?xml version="1.0" encoding="utf-8"?>
<!DOCTYPE eagle SYSTEM "eagle.dtd">
<eagle version="6.5.0">
<drawing>
<settings>
<setting alwaysvectorfont="no"/>
<setting verticaltext="up"/>
</settings>
<grid distance="0.1" unitdist="inch" unit="inch" style="lines" multiple="1" display="no" altdistance="0.01" altunitdist="inch" altunit="inch"/>
<layers>
<layer number="1" name="Top" color="4" fill="1" visible="yes" active="yes"/>
<layer number="16" name="Bottom" color="1" fill="1" visible="yes" active="yes"/>
<layer number="17" name="Pads" color="2" fill="1" visible="yes" active="yes"/>
<layer number="18" name="Vias" color="2" fill="1" visible="yes" active="yes"/>
<layer number="19" name="Unrouted" color="6" fill="1" visible="yes" active="yes"/>
<layer number="20" name="Dimension" color="15" fill="1" visible="yes" active="yes"/>
<layer number="21" name="tPlace" color="7" fill="1" visible="yes" active="yes"/>
<layer number="22" name="bPlace" color="7" fill="1" visible="yes" active="yes"/>
<layer number="23" name="tOrigins" color="15" fill="1" visible="yes" active="yes"/>
<layer number="24" name="bOrigins" color="15" fill="1" visible="yes" active="yes"/>
<layer number="25" name="tNames" color="7" fill="1" visible="yes" active="yes"/>
<layer number="26" name="bNames" color="7" fill="1" visible="yes" active="yes"/>
<layer number="27" name="tValues" color="7" fill="1" visible="yes" active="yes"/>
<layer number="28" name="bValues" color="7" fill="1" visible="yes" active="yes"/>
<layer number="29" name="tStop" color="7" fill="3" visible="no" active="yes"/>
<layer number="30" name="bStop" color="7" fill="6" visible="no" active="yes"/>
<layer number="31" name="tCream" color="7" fill="4" visible="no" active="yes"/>
<layer number="32" name="bCream" color="7" fill="5" visible="no" active="yes"/>
<layer number="33" name="tFinish" color="6" fill="3" visible="no" active="yes"/>
<layer number="34" name="bFinish" color="6" fill="6" visible="no" active="yes"/>
<layer number="35" name="tGlue" color="7" fill="4" visible="no" active="yes"/>
<layer number="36" name="bGlue" color="7" fill="5" visible="no" active="yes"/>
<layer number="37" name="tTest" color="7" fill="1" visible="no" active="yes"/>
<layer number="38" name="bTest" color="7" fill="1" visible="no" active="yes"/>
<layer number="39" name="tKeepout" color="4" fill="11" visible="yes" active="yes"/>
<layer number="40" name="bKeepout" color="1" fill="11" visible="yes" active="yes"/>
<layer number="41" name="tRestrict" color="4" fill="10" visible="yes" active="yes"/>
<layer number="42" name="bRestrict" color="1" fill="10" visible="yes" active="yes"/>
<layer number="43" name="vRestrict" color="2" fill="10" visible="yes" active="yes"/>
<layer number="44" name="Drills" color="7" fill="1" visible="no" active="yes"/>
<layer number="45" name="Holes" color="7" fill="1" visible="no" active="yes"/>
<layer number="46" name="Milling" color="3" fill="1" visible="no" active="yes"/>
<layer number="47" name="Measures" color="7" fill="1" visible="no" active="yes"/>
<layer number="48" name="Document" color="7" fill="1" visible="yes" active="yes"/>
<layer number="49" name="Reference" color="7" fill="1" visible="yes" active="yes"/>
<layer number="51" name="tDocu" color="7" fill="1" visible="yes" active="yes"/>
<layer number="52" name="bDocu" color="7" fill="1" visible="yes" active="yes"/>
<layer number="91" name="Nets" color="2" fill="1" visible="yes" active="yes"/>
<layer number="92" name="Busses" color="1" fill="1" visible="yes" active="yes"/>
<layer number="93" name="Pins" color="2" fill="1" visible="yes" active="yes"/>
<layer number="94" name="Symbols" color="4" fill="1" visible="yes" active="yes"/>
<layer number="95" name="Names" color="7" fill="1" visible="yes" active="yes"/>
<layer number="96" name="Values" color="7" fill="1" visible="yes" active="yes"/>
<layer number="97" name="Info" color="7" fill="1" visible="yes" active="yes"/>
<layer number="98" name="Guide" color="6" fill="1" visible="yes" active="yes"/>
</layers>
<library>
<packages>
<package name="SO-20DW">
<description>&lt;b&gt;Small Outline Integrated Circuit&lt;/b&gt; wide</description>
<wire x1="-6.895" y1="5.9" x2="6.895" y2="5.9" width="0.2" layer="39"/>
<wire x1="6.895" y1="-5.9" x2="-6.895" y2="-5.9" width="0.2" layer="39"/>
<wire x1="-6.895" y1="-5.9" x2="-6.895" y2="5.9" width="0.2" layer="39"/>
<wire x1="6.46" y1="-3.7" x2="-6.46" y2="-3.7" width="0.2032" layer="51"/>
<wire x1="-6.46" y1="-3.7" x2="-6.46" y2="3.7" width="0.2032" layer="51"/>
<wire x1="-6.46" y1="3.7" x2="6.46" y2="3.7" width="0.2032" layer="51"/>
<wire x1="6.46" y1="-3.2" x2="-6.46" y2="-3.2" width="0.2032" layer="21"/>
<wire x1="6.46" y1="3.7" x2="6.46" y2="-3.7" width="0.2032" layer="51"/>
<wire x1="6.895" y1="5.9" x2="6.895" y2="-5.9" width="0.2" layer="39"/>
<smd name="2" x="-4.445" y="-4.6" dx="0.6" dy="2.2" layer="1"/>
<smd name="13" x="3.175" y="4.6" dx="0.6" dy="2.2" layer="1"/>
<smd name="1" x="-5.715" y="-4.6" dx="0.6" dy="2.2" layer="1"/>
<smd name="3" x="-3.175" y="-4.6" dx="0.6" dy="2.2" layer="1"/>
<smd name="4" x="-1.905" y="-4.6" dx="0.6" dy="2.2" layer="1"/>
<smd name="14" x="1.905" y="4.6" dx="0.6" dy="2.2" layer="1"/>
<smd name="12" x="4.445" y="4.6" dx="0.6" dy="2.2" layer="1"/>
<smd name="11" x="5.715" y="4.6" dx="0.6" dy="2.2" layer="1"/>
<smd name="6" x="0.635" y="-4.6" dx="0.6" dy="2.2" layer="1"/>
<smd name="9" x="4.445" y="-4.6" dx="0.6" dy="2.2" layer="1"/>
<smd name="5" x="-0.635" y="-4.6" dx="0.6" dy="2.2" layer="1"/>
<smd name="7" x="1.905" y="-4.6" dx="0.6" dy="2.2" layer="1"/>
<smd name="10" x="5.715" y="-4.6" dx="0.6" dy="2.2" layer="1"/>
<smd name="8" x="3.175" y="-4.6" dx="0.6" dy="2.2" layer="1"/>
<smd name="15" x="0.635" y="4.6" dx="0.6" dy="2.2" layer="1"/>
<smd name="16" x="-0.635" y="4.6" dx="0.6" dy="2.2" layer="1"/>
<smd name="17" x="-1.905" y="4.6" dx="0.6" dy="2.2" layer="1"/>
<smd name="18" x="-3.175" y="4.6" dx="0.6" dy="2.2" layer="1"/>
<smd name="19" x="-4.445" y="4.6" dx="0.6" dy="2.2" layer="1"/>
<smd name="20" x="-5.715" y="4.6" dx="0.6" dy="2.2" layer="1"/>
<text x="-5.715" y="1.27" size="1.27" layer="25">&gt;NAME</text>
<text x="-5.715" y="-2.54" size="1.27" layer="27">&gt;VALUE</text>
<rectangle x1="-5.96" y1="-5.32" x2="-5.47" y2="-3.8" layer="51"/>
<rectangle x1="-4.69" y1="-5.32" x2="-4.2" y2="-3.8" layer="51"/>
<rectangle x1="-3.42" y1="-5.32" x2="-2.93" y2="-3.8" layer="51"/>
<rectangle x1="-2.15" y1="-5.32" x2="-1.66" y2="-3.8" layer="51"/>
<rectangle x1="-0.88" y1="-5.32" x2="-0.39" y2="-3.8" layer="51"/>
<rectangle x1="0.39" y1="-5.32" x2="0.88" y2="-3.8" layer="51"/>
<rectangle x1="1.66" y1="-5.32" x2="2.15" y2="-3.8" layer="51"/>
<rectangle x1="2.93" y1="-5.32" x2="3.42" y2="-3.8" layer="51"/>
<rectangle x1="4.2" y1="-5.32" x2="4.69" y2="-3.8" layer="51"/>
<rectangle x1="5.47" y1="-5.32" x2="5.96" y2="-3.8" layer="51"/>
<rectangle x1="5.47" y1="3.8" x2="5.96" y2="5.32" layer="51"/>
<rectangle x1="4.2" y1="3.8" x2="4.69" y2="5.32" layer="51"/>
<rectangle x1="2.93" y1="3.8" x2="3.42" y2="5.32" layer="51"/>
<rectangle x1="1.66" y1="3.8" x2="2.15" y2="5.32" layer="51"/>
<rectangle x1="0.39" y1="3.8" x2="0.88" y2="5.32" layer="51"/>
<rectangle x1="-0.88" y1="3.8" x2="-0.39" y2="5.32" layer="51"/>
<rectangle x1="-2.15" y1="3.8" x2="-1.66" y2="5.32" layer="51"/>
<rectangle x1="-3.42" y1="3.8" x2="-2.93" y2="5.32" layer="51"/>
<rectangle x1="-4.69" y1="3.8" x2="-4.2" y2="5.32" layer="51"/>
<rectangle x1="-5.96" y1="3.8" x2="-5.47" y2="5.32" layer="51"/>
</package>
</packages>
<symbols>
<symbol name="DS3234*">
<wire x1="-15.24" y1="12.7" x2="15.24" y2="12.7" width="0.254" layer="94"/>
<wire x1="15.24" y1="12.7" x2="15.24" y2="-15.24" width="0.254" layer="94"/>
<wire x1="15.24" y1="-15.24" x2="-15.24" y2="-15.24" width="0.254" layer="94"/>
<wire x1="-15.24" y1="-15.24" x2="-15.24" y2="12.7" width="0.254" layer="94"/>
<text x="-15.24" y="17.78" size="1.27" layer="95">&gt;NAME</text>
<text x="-15.24" y="15.24" size="1.27" layer="96">&gt;VALUE</text>
<pin name="GND" x="0" y="-17.78" length="short" rot="R90"/>
<pin name="VCC" x="-2.54" y="15.24" length="short" rot="R270"/>
<pin name="VBAT" x="2.54" y="15.24" length="short" rot="R270"/>
<pin name="CS#" x="-17.78" y="-7.62" length="short"/>
<pin name="SCLK1" x="-17.78" y="-5.08" length="short"/>
<pin name="SCLK2" x="-17.78" y="-2.54" length="short"/>
<pin name="DIN" x="-17.78" y="0" length="short"/>
<pin name="DOUT" x="-17.78" y="2.54" length="short"/>
<pin name="32KHZ" x="17.78" y="2.54" length="short" rot="R180"/>
<pin name="INT#/SQW" x="17.78" y="-2.54" length="short" rot="R180"/>
<pin name="RST#" x="17.78" y="-7.62" length="short" rot="R180"/>
</symbol>
</symbols>
<devicesets>
<deviceset name="DS3234*">
<description>&lt;h3&gt;Extremely Accurate SPI Bus RTC with 
Integrated Crystal and SRAM&lt;/h3&gt;
The DS3234 is a low-cost, extremely accurate SPI? bus 
real-time clock (RTC) with an integrated temperature-com- 
pensated crystal oscillator (TCXO) and crystal. The 
DS3234 incorporates a precision, temperature-compen- 
sated voltage reference and comparator circuit to monitor 
VCC. When VCCdrops below the power-fail voltage (VPF), 
the device asserts the RSToutput and also disables read 
and write access to the part when VCCdrops below both 
VPFand VBAT. The RSTpin is monitored as a pushbutton 
input for generating a µP reset. The device switches to the 
backup supply input and maintains accurate timekeeping 
when main power to the device is interrupted. The integra- 
tion of the crystal resonator enhances the long-term accu- 
racy of the device as well as reduces the piece-part count 
in a manufacturing line. The DS3234 is available in com- 
mercial and industrial temperature ranges, and is offered 
in an industry-standard 300-mil, 20-pin SO package.&lt;br&gt;
&lt;br&gt; 
The DS3234 also integrates 256 bytes of battery-backed 
SRAM. In the event of main power loss, the contents of 
the memory are maintained by the power source con- 
nected to the VBATpin. The RTC maintains seconds, 
minutes, hours, day, date, month, and year information. 
The date at the end of the month is automatically adjust- 
ed for months with fewer than 31 days, including correc- 
tions for leap year. The clock operates in either the 
24-hour or 12-hour format with AM/PM indicator. Two 
programmable time-of-day alarms and a programmable 
square-wave output are provided. Address and data are 
transferred serially by an SPI bidirectional bus. &lt;br&gt;
&lt;ul&gt;
&lt;li&gt;Accuracy ±2ppm from 0°C to +40°C 
&lt;li&gt;Accuracy ±3.5ppm from -40°C to +85°C 
&lt;li&gt;Battery Backup Input for Continuous 
Timekeeping 
&lt;li&gt;Operating Temperature Ranges 
Commercial: 0°C to +70°C 
Industrial: -40°C to +85°C 
&lt;li&gt;Low-Power Consumption 
&lt;li&gt;Real-Time Clock Counts Seconds, Minutes, 
Hours, Day, Date, Month, and Year with Leap Year 
Compensation Valid Up to 2099 
&lt;li&gt;Two Time-of-Day Alarms 
&lt;li&gt;Programmable Square-Wave Output 
&lt;li&gt;4MHz SPI Bus Supports Modes 1 and 3 
&lt;li&gt;Digital Temp Sensor Output: ±3°C Accuracy 
&lt;li&gt;Register for Aging Trim 
&lt;li&gt;RSTInput/Output 
&lt;li&gt;300-Mil, 20-Pin SO Package 
&lt;li&gt;Underwriters Laboratories (UL®) Recognized 
&lt;/ul&gt;</description>
<gates>
<gate name="G$1" symbol="DS3234*" x="0" y="0"/>
</gates>
<devices>
<device name="" package="SO-20DW">
<connects>
<connect gate="G$1" pin="32KHZ" pad="3"/>
<connect gate="G$1" pin="CS#" pad="1"/>
<connect gate="G$1" pin="DIN" pad="17"/>
<connect gate="G$1" pin="DOUT" pad="19"/>
<connect gate="G$1" pin="GND" pad="2 7 8 9 10 11 12 13 14 15"/>
<connect gate="G$1" pin="INT#/SQW" pad="5"/>
<connect gate="G$1" pin="RST#" pad="6"/>
<connect gate="G$1" pin="SCLK1" pad="18"/>
<connect gate="G$1" pin="SCLK2" pad="20"/>
<connect gate="G$1" pin="VBAT" pad="16"/>
<connect gate="G$1" pin="VCC" pad="4"/>
</connects>
<technologies>
<technology name=""/>
</technologies>
</device>
</devices>
</deviceset>
</devicesets>
</library>
</drawing>
</eagle>
