<?xml version="1.0" encoding="utf-8"?>
<!DOCTYPE eagle SYSTEM "eagle.dtd">
<eagle version="6.5.0">
<drawing>
<settings>
<setting alwaysvectorfont="no"/>
<setting verticaltext="up"/>
</settings>
<grid distance="0.1" unitdist="inch" unit="inch" style="lines" multiple="1" display="no" altdistance="0.01" altunitdist="inch" altunit="inch"/>
<layers>
<layer number="1" name="Top" color="4" fill="1" visible="yes" active="yes"/>
<layer number="2" name="Route2" color="16" fill="1" visible="no" active="yes"/>
<layer number="3" name="Route3" color="13" fill="3" visible="no" active="yes"/>
<layer number="4" name="Route4" color="1" fill="4" visible="no" active="yes"/>
<layer number="5" name="Route5" color="4" fill="4" visible="no" active="yes"/>
<layer number="6" name="Route6" color="1" fill="8" visible="no" active="yes"/>
<layer number="7" name="Route7" color="4" fill="8" visible="no" active="yes"/>
<layer number="8" name="Route8" color="1" fill="2" visible="no" active="yes"/>
<layer number="9" name="Route9" color="4" fill="2" visible="no" active="yes"/>
<layer number="10" name="Route10" color="1" fill="7" visible="no" active="yes"/>
<layer number="11" name="Route11" color="4" fill="7" visible="no" active="yes"/>
<layer number="12" name="Route12" color="1" fill="5" visible="no" active="yes"/>
<layer number="13" name="Route13" color="4" fill="5" visible="no" active="yes"/>
<layer number="14" name="Route14" color="2" fill="6" visible="no" active="yes"/>
<layer number="15" name="Route15" color="3" fill="1" visible="no" active="yes"/>
<layer number="16" name="Bottom" color="1" fill="1" visible="yes" active="yes"/>
<layer number="17" name="Pads" color="2" fill="1" visible="yes" active="yes"/>
<layer number="18" name="Vias" color="2" fill="1" visible="yes" active="yes"/>
<layer number="19" name="Unrouted" color="6" fill="1" visible="yes" active="yes"/>
<layer number="20" name="Dimension" color="15" fill="1" visible="yes" active="yes"/>
<layer number="21" name="tPlace" color="17" fill="1" visible="yes" active="yes"/>
<layer number="22" name="bPlace" color="18" fill="1" visible="yes" active="yes"/>
<layer number="23" name="tOrigins" color="15" fill="1" visible="yes" active="yes"/>
<layer number="24" name="bOrigins" color="15" fill="1" visible="yes" active="yes"/>
<layer number="25" name="tNames" color="7" fill="1" visible="yes" active="yes"/>
<layer number="26" name="bNames" color="7" fill="1" visible="yes" active="yes"/>
<layer number="27" name="tValues" color="7" fill="1" visible="yes" active="yes"/>
<layer number="28" name="bValues" color="7" fill="1" visible="yes" active="yes"/>
<layer number="29" name="tStop" color="7" fill="3" visible="no" active="yes"/>
<layer number="30" name="bStop" color="7" fill="6" visible="no" active="yes"/>
<layer number="31" name="tCream" color="7" fill="4" visible="no" active="yes"/>
<layer number="32" name="bCream" color="7" fill="5" visible="no" active="yes"/>
<layer number="33" name="tFinish" color="6" fill="5" visible="no" active="yes"/>
<layer number="34" name="bFinish" color="6" fill="4" visible="no" active="yes"/>
<layer number="35" name="tGlue" color="7" fill="4" visible="no" active="yes"/>
<layer number="36" name="bGlue" color="7" fill="5" visible="no" active="yes"/>
<layer number="37" name="tTest" color="7" fill="1" visible="no" active="yes"/>
<layer number="38" name="bTest" color="7" fill="1" visible="no" active="yes"/>
<layer number="39" name="tKeepout" color="4" fill="11" visible="yes" active="yes"/>
<layer number="40" name="bKeepout" color="1" fill="11" visible="yes" active="yes"/>
<layer number="41" name="tRestrict" color="4" fill="10" visible="yes" active="yes"/>
<layer number="42" name="bRestrict" color="1" fill="10" visible="yes" active="yes"/>
<layer number="43" name="vRestrict" color="2" fill="10" visible="yes" active="yes"/>
<layer number="44" name="Drills" color="7" fill="1" visible="no" active="yes"/>
<layer number="45" name="Holes" color="7" fill="1" visible="no" active="yes"/>
<layer number="46" name="Milling" color="3" fill="1" visible="no" active="yes"/>
<layer number="47" name="Measures" color="7" fill="1" visible="no" active="yes"/>
<layer number="48" name="Document" color="6" fill="1" visible="yes" active="yes"/>
<layer number="49" name="Reference" color="16" fill="1" visible="yes" active="yes"/>
<layer number="50" name="dxf" color="7" fill="1" visible="no" active="no"/>
<layer number="51" name="tDocu" color="7" fill="1" visible="yes" active="yes"/>
<layer number="52" name="bDocu" color="7" fill="1" visible="yes" active="yes"/>
<layer number="53" name="tGND_GNDA" color="7" fill="9" visible="no" active="no"/>
<layer number="54" name="bGND_GNDA" color="1" fill="9" visible="no" active="no"/>
<layer number="56" name="wert" color="7" fill="1" visible="no" active="no"/>
<layer number="91" name="Nets" color="2" fill="1" visible="yes" active="yes"/>
<layer number="92" name="Busses" color="1" fill="1" visible="yes" active="yes"/>
<layer number="93" name="Pins" color="2" fill="1" visible="no" active="yes"/>
<layer number="94" name="Symbols" color="4" fill="1" visible="yes" active="yes"/>
<layer number="95" name="Names" color="7" fill="1" visible="yes" active="yes"/>
<layer number="96" name="Values" color="7" fill="1" visible="yes" active="yes"/>
<layer number="97" name="Info" color="7" fill="1" visible="yes" active="yes"/>
<layer number="98" name="Guide" color="6" fill="1" visible="yes" active="yes"/>
<layer number="100" name="Muster" color="7" fill="1" visible="no" active="yes"/>
<layer number="101" name="Bemassung" color="7" fill="1" visible="no" active="yes"/>
<layer number="102" name="test" color="7" fill="1" visible="no" active="yes"/>
<layer number="103" name="fp3" color="7" fill="1" visible="no" active="yes"/>
<layer number="104" name="Name" color="7" fill="1" visible="no" active="yes"/>
<layer number="105" name="Beschreib" color="7" fill="1" visible="no" active="yes"/>
<layer number="106" name="BGA-Top" color="7" fill="1" visible="no" active="yes"/>
<layer number="107" name="BD-Top" color="7" fill="1" visible="no" active="yes"/>
<layer number="108" name="fp8" color="7" fill="1" visible="no" active="yes"/>
<layer number="109" name="fp9" color="7" fill="1" visible="no" active="yes"/>
<layer number="110" name="fp0" color="7" fill="1" visible="no" active="yes"/>
<layer number="111" name="NETLINKS" color="7" fill="1" visible="no" active="yes"/>
<layer number="116" name="Patch_BOT" color="7" fill="1" visible="no" active="yes"/>
<layer number="121" name="tTestdril" color="7" fill="1" visible="no" active="yes"/>
<layer number="122" name="bTestdril" color="7" fill="1" visible="no" active="yes"/>
<layer number="123" name="tTestmark" color="7" fill="1" visible="no" active="yes"/>
<layer number="124" name="bTestmark" color="7" fill="1" visible="no" active="yes"/>
<layer number="125" name="_tNames" color="7" fill="1" visible="no" active="yes"/>
<layer number="126" name="_bNames" color="7" fill="1" visible="no" active="yes"/>
<layer number="131" name="tAdjust" color="7" fill="1" visible="no" active="yes"/>
<layer number="132" name="bAdjust" color="7" fill="1" visible="no" active="yes"/>
<layer number="144" name="Drill_legend" color="7" fill="1" visible="no" active="yes"/>
<layer number="145" name="DrillLegend_01-16" color="7" fill="1" visible="no" active="yes"/>
<layer number="146" name="DrillLegend_01-20" color="7" fill="1" visible="no" active="yes"/>
<layer number="151" name="L$151" color="7" fill="1" visible="no" active="yes"/>
<layer number="186" name="jmNotes" color="7" fill="1" visible="no" active="yes"/>
<layer number="187" name="dchNotes" color="5" fill="1" visible="yes" active="yes"/>
<layer number="189" name="PartDim" color="7" fill="1" visible="no" active="yes"/>
<layer number="197" name="L$197" color="7" fill="1" visible="no" active="yes"/>
<layer number="198" name="L$198" color="7" fill="1" visible="no" active="yes"/>
<layer number="199" name="L$199" color="7" fill="1" visible="no" active="yes"/>
<layer number="200" name="200bmp" color="1" fill="10" visible="yes" active="yes"/>
<layer number="201" name="201bmp" color="7" fill="1" visible="no" active="yes"/>
<layer number="202" name="202bmp" color="7" fill="1" visible="no" active="yes"/>
<layer number="203" name="203bmp" color="7" fill="1" visible="no" active="yes"/>
<layer number="204" name="204bmp" color="7" fill="1" visible="no" active="yes"/>
<layer number="205" name="205bmp" color="7" fill="1" visible="no" active="yes"/>
<layer number="206" name="206bmp" color="7" fill="1" visible="no" active="yes"/>
<layer number="207" name="207bmp" color="7" fill="1" visible="no" active="yes"/>
<layer number="208" name="208bmp" color="7" fill="1" visible="no" active="yes"/>
<layer number="209" name="209bmp" color="7" fill="1" visible="no" active="yes"/>
<layer number="210" name="210bmp" color="7" fill="1" visible="no" active="yes"/>
<layer number="231" name="Eagle3D_PG1" color="7" fill="1" visible="no" active="yes"/>
<layer number="232" name="Eagle3D_PG2" color="7" fill="1" visible="no" active="yes"/>
<layer number="233" name="Eagle3D_PG3" color="7" fill="1" visible="no" active="yes"/>
<layer number="247" name="wrappinf" color="7" fill="1" visible="no" active="yes"/>
<layer number="248" name="PLCDoku" color="7" fill="1" visible="no" active="yes"/>
<layer number="249" name="MillDoku" color="7" fill="1" visible="no" active="yes"/>
<layer number="250" name="Descript" color="7" fill="1" visible="no" active="no"/>
<layer number="251" name="SMDround" color="7" fill="1" visible="no" active="no"/>
<layer number="252" name="BR-BS" color="7" fill="1" visible="no" active="yes"/>
<layer number="253" name="BR-LS" color="7" fill="1" visible="no" active="yes"/>
<layer number="254" name="cooling" color="7" fill="1" visible="no" active="yes"/>
<layer number="255" name="ZchnBlatt" color="7" fill="1" visible="no" active="yes"/>
</layers>
<library>
<packages>
<package name="BBONEB-CAPE-TEMPLATE">
<wire x1="54.61" y1="80.645" x2="54.61" y2="12.7" width="0" layer="48"/>
<wire x1="54.61" y1="12.7" x2="41.91" y2="0" width="0" layer="48" curve="-90"/>
<wire x1="41.91" y1="0" x2="12.7" y2="0" width="0" layer="48"/>
<wire x1="12.7" y1="0" x2="0" y2="12.7" width="0" layer="48" curve="-90"/>
<wire x1="0" y1="12.7" x2="0" y2="80.01" width="0" layer="48"/>
<wire x1="0" y1="80.01" x2="6.35" y2="86.36" width="0" layer="48" curve="-90"/>
<wire x1="6.35" y1="86.36" x2="20.955" y2="86.36" width="0" layer="48"/>
<wire x1="20.955" y1="86.36" x2="20.955" y2="66.04" width="0" layer="48"/>
<wire x1="20.955" y1="66.04" x2="38.735" y2="66.04" width="0" layer="48"/>
<wire x1="38.735" y1="66.04" x2="38.735" y2="80.645" width="0" layer="48"/>
<wire x1="38.735" y1="80.645" x2="54.61" y2="80.645" width="0" layer="48"/>
<circle x="4.445" y="66.675" radius="0.4064" width="0" layer="48"/>
<rectangle x1="1.524" y1="66.294" x2="2.286" y2="67.056" layer="48"/>
<circle x="4.445" y="10.795" radius="0.4064" width="0" layer="48"/>
<circle x="1.905" y="10.795" radius="0.4064" width="0" layer="48"/>
<circle x="52.705" y="66.675" radius="0.4064" width="0" layer="48"/>
<rectangle x1="49.784" y1="66.294" x2="50.546" y2="67.056" layer="48"/>
<circle x="50.165" y="10.795" radius="0.4064" width="0" layer="48"/>
<circle x="52.705" y="10.795" radius="0.4064" width="0" layer="48"/>
<wire x1="0.635" y1="9.525" x2="0.635" y2="67.945" width="0.127" layer="48"/>
<wire x1="0.635" y1="67.945" x2="5.715" y2="67.945" width="0.127" layer="48"/>
<wire x1="5.715" y1="67.945" x2="5.715" y2="9.525" width="0.127" layer="48"/>
<wire x1="5.715" y1="9.525" x2="0.635" y2="9.525" width="0.127" layer="48"/>
<wire x1="48.895" y1="9.525" x2="48.895" y2="67.945" width="0.127" layer="48"/>
<wire x1="48.895" y1="67.945" x2="53.975" y2="67.945" width="0.127" layer="48"/>
<wire x1="53.975" y1="67.945" x2="53.975" y2="9.525" width="0.127" layer="48"/>
<wire x1="53.975" y1="9.525" x2="48.895" y2="9.525" width="0.127" layer="48"/>
<text x="3.175" y="38.735" size="2.54" layer="48" ratio="15" rot="R90" align="center">P9</text>
<text x="2.286" y="66.167" size="0.8128" layer="48" ratio="15" rot="R180">1</text>
<text x="3.81" y="11.303" size="0.8128" layer="48" ratio="15">46</text>
<text x="51.435" y="38.735" size="2.54" layer="48" ratio="15" rot="R90" align="center">P8</text>
<text x="50.546" y="66.167" size="0.8128" layer="48" ratio="15" rot="R180">1</text>
<text x="52.07" y="11.303" size="0.8128" layer="48" ratio="15">46</text>
<rectangle x1="7.239" y1="43.434" x2="8.001" y2="44.196" layer="48"/>
<wire x1="6.35" y1="45.085" x2="8.89" y2="45.085" width="0.127" layer="48"/>
<wire x1="8.89" y1="45.085" x2="8.89" y2="29.845" width="0.127" layer="48"/>
<wire x1="6.35" y1="45.085" x2="6.35" y2="29.845" width="0.127" layer="48"/>
<circle x="7.62" y="31.115" radius="0.4064" width="0" layer="48"/>
<wire x1="6.35" y1="29.845" x2="8.89" y2="29.845" width="0.127" layer="48"/>
<text x="7.62" y="37.465" size="1.778" layer="48" ratio="15" rot="R90" align="center">P2</text>
<circle x="3.175" y="71.755" radius="1.905" width="0.635" layer="48"/>
<circle x="6.35" y="5.715" radius="1.905" width="0.635" layer="48"/>
<circle x="48.26" y="5.715" radius="1.905" width="0.635" layer="48"/>
<circle x="51.435" y="71.755" radius="1.905" width="0.635" layer="48"/>
</package>
</packages>
<symbols>
<symbol name="BBONEB-CAPE-TEMPLATE">
<wire x1="-2.54" y1="10.16" x2="-2.54" y2="5.08" width="0.254" layer="94"/>
<wire x1="-2.54" y1="5.08" x2="2.54" y2="5.08" width="0.254" layer="94"/>
<wire x1="2.54" y1="5.08" x2="2.54" y2="7.62" width="0.254" layer="94"/>
<wire x1="2.54" y1="7.62" x2="7.62" y2="7.62" width="0.254" layer="94"/>
<wire x1="7.62" y1="7.62" x2="7.62" y2="2.54" width="0.254" layer="94"/>
<wire x1="7.62" y1="2.54" x2="7.62" y2="-7.62" width="0.254" layer="94"/>
<wire x1="5.08" y1="-10.16" x2="7.62" y2="-7.62" width="0.254" layer="94" curve="90"/>
<wire x1="5.08" y1="-10.16" x2="-5.08" y2="-10.16" width="0.254" layer="94"/>
<wire x1="-5.08" y1="-10.16" x2="-7.62" y2="-7.62" width="0.254" layer="94" curve="-90"/>
<wire x1="-2.54" y1="10.16" x2="-5.08" y2="10.16" width="0.254" layer="94"/>
<wire x1="-5.08" y1="10.16" x2="-7.62" y2="7.62" width="0.254" layer="94" curve="90"/>
<wire x1="-7.62" y1="7.62" x2="-7.62" y2="2.54" width="0.254" layer="94"/>
<text x="0" y="-11.43" size="1.778" layer="95" align="top-center">&gt;NAME</text>
<text x="0" y="-13.97" size="1.778" layer="96" align="top-center">BBONE-CAPE</text>
<wire x1="-7.62" y1="2.54" x2="-7.62" y2="-7.62" width="0.254" layer="94"/>
<circle x="-6.35" y="2.54" radius="0.359209375" width="0" layer="94"/>
<circle x="6.35" y="2.54" radius="0.359209375" width="0" layer="94"/>
<circle x="6.35" y="-7.62" radius="0.359209375" width="0" layer="94"/>
<circle x="-6.35" y="-7.62" radius="0.359209375" width="0" layer="94"/>
</symbol>
</symbols>
<devicesets>
<deviceset name="BBONEB-CAPE-TEMPLATE">
<description>Edit EAGLEUP attribute to change Z-position (default -300 mils)&lt;br&gt;
Rotation, mirror, X, and Y offsets can also be set
&lt;p&gt;
Consult EagleUp homepage for more information:&lt;br&gt;
&lt;a href="http://eagleup.wordpress.com/"&gt;http://eagleup.wordpress.com/&lt;/a&gt;</description>
<gates>
<gate name="G$1" symbol="BBONEB-CAPE-TEMPLATE" x="0" y="0"/>
</gates>
<devices>
<device name="" package="BBONEB-CAPE-TEMPLATE">
<technologies>
<technology name="">
<attribute name="EAGLEUP" value="BeagleBoneBlack-3D ; ; -300 mil" constant="no"/>
</technology>
</technologies>
</device>
</devices>
</deviceset>
</devicesets>
</library>
</drawing>
</eagle>
