<?xml version="1.0" encoding="utf-8"?>
<!DOCTYPE eagle SYSTEM "eagle.dtd">
<eagle version="7.2.0">
<drawing>
<settings>
<setting alwaysvectorfont="yes"/>
<setting verticaltext="up"/>
</settings>
<grid distance="0.1" unitdist="inch" unit="inch" style="lines" multiple="1" display="no" altdistance="0.01" altunitdist="inch" altunit="inch"/>
<layers>
<layer number="1" name="Top" color="4" fill="1" visible="yes" active="yes"/>
<layer number="16" name="Bottom" color="1" fill="1" visible="yes" active="yes"/>
<layer number="17" name="Pads" color="2" fill="1" visible="yes" active="yes"/>
<layer number="18" name="Vias" color="2" fill="1" visible="yes" active="yes"/>
<layer number="19" name="Unrouted" color="6" fill="1" visible="yes" active="yes"/>
<layer number="20" name="Dimension" color="15" fill="1" visible="yes" active="yes"/>
<layer number="21" name="tPlace" color="7" fill="1" visible="yes" active="yes"/>
<layer number="22" name="bPlace" color="7" fill="1" visible="yes" active="yes"/>
<layer number="23" name="tOrigins" color="15" fill="1" visible="yes" active="yes"/>
<layer number="24" name="bOrigins" color="15" fill="1" visible="yes" active="yes"/>
<layer number="25" name="tNames" color="7" fill="1" visible="yes" active="yes"/>
<layer number="26" name="bNames" color="7" fill="1" visible="yes" active="yes"/>
<layer number="27" name="tValues" color="7" fill="1" visible="yes" active="yes"/>
<layer number="28" name="bValues" color="7" fill="1" visible="yes" active="yes"/>
<layer number="29" name="tStop" color="7" fill="3" visible="no" active="yes"/>
<layer number="30" name="bStop" color="7" fill="6" visible="no" active="yes"/>
<layer number="31" name="tCream" color="7" fill="4" visible="no" active="yes"/>
<layer number="32" name="bCream" color="7" fill="5" visible="no" active="yes"/>
<layer number="33" name="tFinish" color="6" fill="3" visible="no" active="yes"/>
<layer number="34" name="bFinish" color="6" fill="6" visible="no" active="yes"/>
<layer number="35" name="tGlue" color="7" fill="4" visible="no" active="yes"/>
<layer number="36" name="bGlue" color="7" fill="5" visible="no" active="yes"/>
<layer number="37" name="tTest" color="7" fill="1" visible="no" active="yes"/>
<layer number="38" name="bTest" color="7" fill="1" visible="no" active="yes"/>
<layer number="39" name="tKeepout" color="4" fill="11" visible="yes" active="yes"/>
<layer number="40" name="bKeepout" color="1" fill="11" visible="yes" active="yes"/>
<layer number="41" name="tRestrict" color="4" fill="10" visible="yes" active="yes"/>
<layer number="42" name="bRestrict" color="1" fill="10" visible="yes" active="yes"/>
<layer number="43" name="vRestrict" color="2" fill="10" visible="yes" active="yes"/>
<layer number="44" name="Drills" color="7" fill="1" visible="no" active="yes"/>
<layer number="45" name="Holes" color="7" fill="1" visible="no" active="yes"/>
<layer number="46" name="Milling" color="3" fill="1" visible="no" active="yes"/>
<layer number="47" name="Measures" color="7" fill="1" visible="no" active="yes"/>
<layer number="48" name="Document" color="7" fill="1" visible="yes" active="yes"/>
<layer number="49" name="Reference" color="7" fill="1" visible="yes" active="yes"/>
<layer number="51" name="tDocu" color="7" fill="1" visible="yes" active="yes"/>
<layer number="52" name="bDocu" color="7" fill="1" visible="yes" active="yes"/>
<layer number="90" name="Modules" color="5" fill="1" visible="yes" active="yes"/>
<layer number="91" name="Nets" color="2" fill="1" visible="yes" active="yes"/>
<layer number="92" name="Busses" color="1" fill="1" visible="yes" active="yes"/>
<layer number="93" name="Pins" color="2" fill="1" visible="yes" active="yes"/>
<layer number="94" name="Symbols" color="4" fill="1" visible="yes" active="yes"/>
<layer number="95" name="Names" color="7" fill="1" visible="yes" active="yes"/>
<layer number="96" name="Values" color="7" fill="1" visible="yes" active="yes"/>
<layer number="97" name="Info" color="7" fill="1" visible="yes" active="yes"/>
<layer number="98" name="Guide" color="6" fill="1" visible="yes" active="yes"/>
</layers>
<library>
<packages>
<package name="HQFN_3">
<smd name="P$2" x="-1.325" y="0.25" dx="0.55" dy="0.3" layer="1"/>
<smd name="P$4" x="-1.325" y="-0.75" dx="0.55" dy="0.3" layer="1"/>
<smd name="P$010" x="1.325" y="-0.25" dx="0.55" dy="0.3" layer="1"/>
<smd name="P$9" x="1.325" y="-0.75" dx="0.55" dy="0.3" layer="1"/>
<smd name="P$11" x="1.325" y="0.25" dx="0.55" dy="0.3" layer="1"/>
<smd name="P$12" x="1.325" y="0.75" dx="0.55" dy="0.3" layer="1"/>
<smd name="P$8" x="0.75" y="-1.325" dx="0.55" dy="0.3" layer="1" rot="R90"/>
<smd name="P$15" x="-0.25" y="1.325" dx="0.55" dy="0.3" layer="1" rot="R90"/>
<smd name="P$16" x="-0.75" y="1.325" dx="0.55" dy="0.3" layer="1" rot="R90"/>
<smd name="P$13" x="0.75" y="1.325" dx="0.55" dy="0.3" layer="1" rot="R90"/>
<smd name="P$14" x="0.25" y="1.325" dx="0.55" dy="0.3" layer="1" rot="R90"/>
<smd name="P$7" x="0.25" y="-1.325" dx="0.55" dy="0.3" layer="1" rot="R90"/>
<smd name="P$6" x="-0.25" y="-1.325" dx="0.55" dy="0.3" layer="1" rot="R90"/>
<smd name="P$5" x="-0.75" y="-1.325" dx="0.55" dy="0.3" layer="1" rot="R90"/>
<smd name="P$3" x="-1.325" y="-0.25" dx="0.55" dy="0.3" layer="1"/>
<smd name="P$1" x="-1.325" y="0.75" dx="0.55" dy="0.3" layer="1"/>
<wire x1="-1.8" y1="1.8" x2="1.8" y2="1.8" width="0.127" layer="21"/>
<wire x1="1.8" y1="1.8" x2="1.8" y2="-1.8" width="0.127" layer="21"/>
<wire x1="-1.8" y1="1.8" x2="-1.8" y2="-1.8" width="0.127" layer="21"/>
<wire x1="-1.8" y1="-1.8" x2="1.8" y2="-1.8" width="0.127" layer="21"/>
<wire x1="1.5" y1="1.5" x2="-1.5" y2="1.5" width="0.127" layer="51"/>
<wire x1="-1.5" y1="1.5" x2="-1.5" y2="-1.5" width="0.127" layer="51"/>
<wire x1="-1.5" y1="-1.5" x2="1.5" y2="-1.5" width="0.127" layer="51"/>
<wire x1="1.5" y1="-1.5" x2="1.5" y2="1.5" width="0.127" layer="51"/>
<circle x="-2.3" y="0.75" radius="0.13009375" width="0.3048" layer="21"/>
<text x="0" y="1.9" size="0.8128" layer="25" font="vector" ratio="10" align="bottom-center">&gt;Name</text>
<text x="0" y="-1.9" size="0.4064" layer="27" font="vector" ratio="10" rot="R180" align="bottom-center">&gt;Value</text>
</package>
</packages>
<symbols>
<symbol name="HMC5883L">
<pin name="SCL" x="-35.56" y="17.78" length="middle"/>
<pin name="VDD" x="-35.56" y="15.24" length="middle"/>
<pin name="S1" x="-35.56" y="12.7" length="middle" direction="pwr"/>
<pin name="SETP" x="-35.56" y="10.16" length="middle" direction="pas"/>
<pin name="GND@9" x="-5.08" y="10.16" length="middle" direction="pwr" rot="R180"/>
<pin name="C1" x="-5.08" y="12.7" length="middle" direction="pas" rot="R180"/>
<pin name="GND@11" x="-5.08" y="15.24" length="middle" direction="pwr" rot="R180"/>
<pin name="SETC" x="-5.08" y="17.78" length="middle" direction="pas" rot="R180"/>
<pin name="VDDIO" x="-5.08" y="20.32" length="middle" direction="pwr" rot="R180"/>
<pin name="DRDY" x="-35.56" y="22.86" length="middle" direction="out"/>
<pin name="SDA" x="-35.56" y="20.32" length="middle"/>
<wire x1="-33.02" y1="7.62" x2="-33.02" y2="25.4" width="0.254" layer="94"/>
<wire x1="-33.02" y1="25.4" x2="-7.62" y2="25.4" width="0.254" layer="94"/>
<wire x1="-7.62" y1="25.4" x2="-7.62" y2="7.62" width="0.254" layer="94"/>
<wire x1="-7.62" y1="7.62" x2="-33.02" y2="7.62" width="0.254" layer="94"/>
<text x="-20.32" y="25.654" size="2.032" layer="95" align="bottom-center">&gt;Name</text>
<text x="-20.32" y="7.366" size="1.27" layer="96" align="top-center">&gt;Value</text>
</symbol>
</symbols>
<devicesets>
<deviceset name="HMC5883L" prefix="U">
<description>&lt;B&gt;Honeywell HMC5883L&lt;/B&gt;&lt;br&gt;

low-field magnetic sensing with a digital interface for applications such as lowcost
compassing and magnetometry.

&lt;p&gt;Technical Specifications:&lt;br&gt;
&lt;ul&gt;
&lt;li&gt;Supply Voltage 3v3 (2.16 - 3.6v)&lt;/li&gt;
&lt;li&gt;Operating Temperature Ambient -30 to 85 °C&lt;/li&gt;
&lt;li&gt;I2C Address:&lt;br&gt;8-bit read address 0x3D&lt;br&gt; 8-bit write address 0x3C&lt;/li&gt;
&lt;/ul&gt;&lt;br&gt;

&lt;a href="http://aerospace.honeywell.com/~/media/Images/Plymouth%20Website%20PDFs/Magnetic%20Sensors/Data%20Sheets/HMC5883L_3-Axis_Digital_Compass_IC.ashx"&gt;Datasheet&lt;/a&gt;</description>
<gates>
<gate name="G$1" symbol="HMC5883L" x="20.32" y="-15.24"/>
</gates>
<devices>
<device name="" package="HQFN_3">
<connects>
<connect gate="G$1" pin="C1" pad="P$010"/>
<connect gate="G$1" pin="DRDY" pad="P$15"/>
<connect gate="G$1" pin="GND@11" pad="P$11"/>
<connect gate="G$1" pin="GND@9" pad="P$9"/>
<connect gate="G$1" pin="S1" pad="P$4"/>
<connect gate="G$1" pin="SCL" pad="P$1"/>
<connect gate="G$1" pin="SDA" pad="P$16"/>
<connect gate="G$1" pin="SETC" pad="P$12"/>
<connect gate="G$1" pin="SETP" pad="P$8"/>
<connect gate="G$1" pin="VDD" pad="P$2"/>
<connect gate="G$1" pin="VDDIO" pad="P$13"/>
</connects>
<technologies>
<technology name=""/>
</technologies>
</device>
</devices>
</deviceset>
</devicesets>
</library>
</drawing>
</eagle>
