<?xml version="1.0" encoding="utf-8"?>
<!DOCTYPE eagle SYSTEM "eagle.dtd">
<eagle version="7.2.0">
<drawing>
<settings>
<setting alwaysvectorfont="yes"/>
<setting verticaltext="up"/>
</settings>
<grid distance="0.1" unitdist="inch" unit="inch" style="lines" multiple="1" display="yes" altdistance="0.01" altunitdist="inch" altunit="inch"/>
<layers>
<layer number="1" name="Top" color="4" fill="1" visible="yes" active="yes"/>
<layer number="16" name="Bottom" color="1" fill="1" visible="yes" active="yes"/>
<layer number="17" name="Pads" color="2" fill="1" visible="yes" active="yes"/>
<layer number="18" name="Vias" color="2" fill="1" visible="yes" active="yes"/>
<layer number="19" name="Unrouted" color="6" fill="1" visible="yes" active="yes"/>
<layer number="20" name="Dimension" color="15" fill="1" visible="yes" active="yes"/>
<layer number="21" name="tPlace" color="7" fill="1" visible="yes" active="yes"/>
<layer number="22" name="bPlace" color="7" fill="1" visible="yes" active="yes"/>
<layer number="23" name="tOrigins" color="15" fill="1" visible="yes" active="yes"/>
<layer number="24" name="bOrigins" color="15" fill="1" visible="yes" active="yes"/>
<layer number="25" name="tNames" color="7" fill="1" visible="yes" active="yes"/>
<layer number="26" name="bNames" color="7" fill="1" visible="yes" active="yes"/>
<layer number="27" name="tValues" color="7" fill="1" visible="yes" active="yes"/>
<layer number="28" name="bValues" color="7" fill="1" visible="yes" active="yes"/>
<layer number="29" name="tStop" color="7" fill="3" visible="yes" active="yes"/>
<layer number="30" name="bStop" color="7" fill="6" visible="yes" active="yes"/>
<layer number="31" name="tCream" color="7" fill="4" visible="yes" active="yes"/>
<layer number="32" name="bCream" color="7" fill="5" visible="yes" active="yes"/>
<layer number="33" name="tFinish" color="6" fill="3" visible="yes" active="yes"/>
<layer number="34" name="bFinish" color="6" fill="6" visible="yes" active="yes"/>
<layer number="35" name="tGlue" color="7" fill="4" visible="yes" active="yes"/>
<layer number="36" name="bGlue" color="7" fill="5" visible="yes" active="yes"/>
<layer number="37" name="tTest" color="7" fill="1" visible="yes" active="yes"/>
<layer number="38" name="bTest" color="7" fill="1" visible="yes" active="yes"/>
<layer number="39" name="tKeepout" color="4" fill="11" visible="yes" active="yes"/>
<layer number="40" name="bKeepout" color="1" fill="11" visible="yes" active="yes"/>
<layer number="41" name="tRestrict" color="4" fill="10" visible="yes" active="yes"/>
<layer number="42" name="bRestrict" color="1" fill="10" visible="yes" active="yes"/>
<layer number="43" name="vRestrict" color="2" fill="10" visible="yes" active="yes"/>
<layer number="44" name="Drills" color="7" fill="1" visible="yes" active="yes"/>
<layer number="45" name="Holes" color="7" fill="1" visible="yes" active="yes"/>
<layer number="46" name="Milling" color="3" fill="1" visible="yes" active="yes"/>
<layer number="47" name="Measures" color="7" fill="1" visible="yes" active="yes"/>
<layer number="48" name="Document" color="7" fill="1" visible="yes" active="yes"/>
<layer number="49" name="Reference" color="7" fill="1" visible="yes" active="yes"/>
<layer number="51" name="tDocu" color="7" fill="1" visible="yes" active="yes"/>
<layer number="52" name="bDocu" color="7" fill="1" visible="yes" active="yes"/>
<layer number="90" name="Modules" color="5" fill="1" visible="yes" active="yes"/>
<layer number="91" name="Nets" color="2" fill="1" visible="yes" active="yes"/>
<layer number="92" name="Busses" color="1" fill="1" visible="yes" active="yes"/>
<layer number="93" name="Pins" color="2" fill="1" visible="yes" active="yes"/>
<layer number="94" name="Symbols" color="4" fill="1" visible="yes" active="yes"/>
<layer number="95" name="Names" color="7" fill="1" visible="yes" active="yes"/>
<layer number="96" name="Values" color="7" fill="1" visible="yes" active="yes"/>
<layer number="97" name="Info" color="7" fill="1" visible="yes" active="yes"/>
<layer number="98" name="Guide" color="6" fill="1" visible="yes" active="yes"/>
</layers>
<library>
<packages>
<package name="DIP18">
<description>&lt;B&gt;MIC 2918&lt;/B&gt; is an 8-channel, high-voltage, high-current source driver array</description>
<wire x1="11.43" y1="2.921" x2="-11.43" y2="2.921" width="0.1524" layer="21"/>
<wire x1="-11.43" y1="-2.921" x2="11.43" y2="-2.921" width="0.1524" layer="21"/>
<wire x1="11.43" y1="2.921" x2="11.43" y2="-2.921" width="0.1524" layer="21"/>
<wire x1="-11.43" y1="2.921" x2="-11.43" y2="1.016" width="0.1524" layer="21"/>
<wire x1="-11.43" y1="-2.921" x2="-11.43" y2="-1.016" width="0.1524" layer="21"/>
<wire x1="-11.43" y1="1.016" x2="-11.43" y2="-1.016" width="0.1524" layer="21" curve="-180"/>
<pad name="IN1" x="-10.16" y="-3.81" drill="0.8128" shape="long" rot="R90"/>
<pad name="IN2" x="-7.62" y="-3.81" drill="0.8128" shape="long" rot="R90"/>
<pad name="IN7" x="5.08" y="-3.81" drill="0.8128" shape="long" rot="R90"/>
<pad name="IN8" x="7.62" y="-3.81" drill="0.8128" shape="long" rot="R90"/>
<pad name="IN3" x="-5.08" y="-3.81" drill="0.8128" shape="long" rot="R90"/>
<pad name="IN4" x="-2.54" y="-3.81" drill="0.8128" shape="long" rot="R90"/>
<pad name="IN6" x="2.54" y="-3.81" drill="0.8128" shape="long" rot="R90"/>
<pad name="IN5" x="0" y="-3.81" drill="0.8128" shape="long" rot="R90"/>
<pad name="VS" x="10.16" y="-3.81" drill="0.8128" shape="long" rot="R90"/>
<pad name="GND" x="10.16" y="3.81" drill="0.8128" shape="long" rot="R90"/>
<pad name="OUT8" x="7.62" y="3.81" drill="0.8128" shape="long" rot="R90"/>
<pad name="OUT7" x="5.08" y="3.81" drill="0.8128" shape="long" rot="R90"/>
<pad name="OUT6" x="2.54" y="3.81" drill="0.8128" shape="long" rot="R90"/>
<pad name="OUT5" x="0" y="3.81" drill="0.8128" shape="long" rot="R90"/>
<pad name="OUT4" x="-2.54" y="3.81" drill="0.8128" shape="long" rot="R90"/>
<pad name="OUT3" x="-5.08" y="3.81" drill="0.8128" shape="long" rot="R90"/>
<pad name="OUT2" x="-7.62" y="3.81" drill="0.8128" shape="long" rot="R90"/>
<pad name="OUT1" x="-10.16" y="3.81" drill="0.8128" shape="long" rot="R90"/>
<text x="-11.684" y="-3.048" size="1.27" layer="25" ratio="10" rot="R90">&gt;NAME</text>
<text x="-9.525" y="-0.635" size="1.27" layer="27" ratio="10">&gt;VALUE</text>
</package>
<package name="AMP_227161">
<description>&lt;b&gt;JACK,  RIGHT ANGLE, 50 OHM, PCB, BNC&lt;/b&gt;&lt;p&gt;
Source: amp_227161.pdf</description>
<wire x1="-7.275" y1="-6.875" x2="7.275" y2="-6.875" width="0.2032" layer="21"/>
<wire x1="7.275" y1="-6.875" x2="7.275" y2="7.275" width="0.2032" layer="21"/>
<wire x1="7.275" y1="7.275" x2="-7.275" y2="7.275" width="0.2032" layer="21"/>
<wire x1="-7.275" y1="7.275" x2="-7.275" y2="-6.875" width="0.2032" layer="21"/>
<wire x1="-6.4" y1="7.375" x2="-6.4" y2="16.025" width="0.2032" layer="21"/>
<wire x1="-6.4" y1="16.025" x2="6.4" y2="16.025" width="0.2032" layer="21"/>
<wire x1="6.4" y1="16.025" x2="6.4" y2="7.35" width="0.2032" layer="21"/>
<wire x1="-4.9" y1="16.15" x2="-4.9" y2="28.475" width="0.2032" layer="21"/>
<wire x1="-4.9" y1="28.475" x2="4.9" y2="28.475" width="0.2032" layer="21"/>
<wire x1="4.9" y1="28.475" x2="4.9" y2="16.125" width="0.2032" layer="21"/>
<circle x="0" y="23.94" radius="1.26" width="0" layer="21"/>
<pad name="1" x="0" y="-5.08" drill="0.9" diameter="1.27" shape="long" rot="R90"/>
<pad name="2" x="-2.54" y="-5.08" drill="0.9" diameter="1.27" shape="long" rot="R90"/>
<pad name="P$1" x="-5.08" y="0" drill="2.2" diameter="3.81" rot="R90"/>
<pad name="P$2" x="5.08" y="0" drill="2.2" diameter="3.81" rot="R90"/>
<text x="-6.985" y="-8.89" size="1.27" layer="25">&gt;NAME</text>
<text x="-0.635" y="-8.89" size="1.27" layer="27">&gt;VALUE</text>
</package>
<package name="MS5803">
<smd name="SDO" x="-2.68" y="-1.9" dx="2.25" dy="0.9" layer="1" rot="R180"/>
<smd name="PS" x="-2.68" y="0.65" dx="2.25" dy="0.9" layer="1" rot="R180"/>
<smd name="GND" x="2.68" y="-0.65" dx="2.25" dy="0.9" layer="1" rot="R180"/>
<smd name="SDI/SDA" x="-2.68" y="-0.65" dx="2.25" dy="0.9" layer="1" rot="R180"/>
<smd name="SCLK" x="2.68" y="-1.9" dx="2.25" dy="0.9" layer="1" rot="R180"/>
<smd name="CSB" x="2.43" y="0.65" dx="0.9" dy="2.8" layer="1" rot="R90"/>
<smd name="NC" x="2.68" y="1.9" dx="2.25" dy="0.9" layer="1" rot="R180"/>
<smd name="VDD" x="-2.68" y="1.9" dx="2.25" dy="0.9" layer="1" rot="R180"/>
<wire x1="-3.1" y1="-3.05" x2="-3.1" y2="3.15" width="0.127" layer="25"/>
<wire x1="-3.1" y1="3.15" x2="3.25" y2="3.15" width="0.127" layer="25"/>
<wire x1="3.25" y1="3.15" x2="3.25" y2="-3.05" width="0.127" layer="25"/>
<wire x1="3.25" y1="-3.05" x2="-3.1" y2="-3.05" width="0.127" layer="25"/>
<circle x="0" y="0" radius="2.2" width="0.127" layer="25"/>
</package>
<package name="3M_N3314-5302RB">
<wire x1="-26.2128" y1="-3.8354" x2="10.9728" y2="-3.8354" width="0.1524" layer="21"/>
<wire x1="10.9728" y1="-3.8354" x2="10.9728" y2="13.462" width="0.1524" layer="21"/>
<wire x1="10.9728" y1="13.462" x2="-26.2128" y2="13.462" width="0.1524" layer="21"/>
<wire x1="-26.2128" y1="13.462" x2="-26.2128" y2="-3.8354" width="0.1524" layer="21"/>
<wire x1="-14.859" y1="-4.445" x2="-15.621" y2="-4.445" width="0.508" layer="21" curve="-180"/>
<wire x1="-15.621" y1="-4.445" x2="-14.859" y2="-4.445" width="0.508" layer="21" curve="-180"/>
<wire x1="-26.2128" y1="-3.8354" x2="10.9728" y2="-3.8354" width="0.1524" layer="51"/>
<wire x1="10.9728" y1="-3.8354" x2="10.9728" y2="13.462" width="0.1524" layer="51"/>
<wire x1="10.9728" y1="13.462" x2="-26.2128" y2="13.462" width="0.1524" layer="51"/>
<wire x1="-26.2128" y1="13.462" x2="-26.2128" y2="-3.8354" width="0.1524" layer="51"/>
<wire x1="-14.859" y1="-4.445" x2="-15.621" y2="-4.445" width="0.508" layer="51" curve="-180"/>
<wire x1="-15.621" y1="-4.445" x2="-14.859" y2="-4.445" width="0.508" layer="51" curve="-180"/>
<pad name="1" x="-15.24" y="-2.54" drill="0.889" shape="square"/>
<pad name="2" x="-15.24" y="0" drill="0.889"/>
<pad name="3" x="-12.7" y="-2.54" drill="0.889"/>
<pad name="4" x="-12.7" y="0" drill="0.889"/>
<pad name="5" x="-10.16" y="-2.54" drill="0.889"/>
<pad name="6" x="-10.16" y="0" drill="0.889"/>
<pad name="7" x="-7.62" y="-2.54" drill="0.889"/>
<pad name="8" x="-7.62" y="0" drill="0.889"/>
<pad name="9" x="-5.08" y="-2.54" drill="0.889"/>
<pad name="10" x="-5.08" y="0" drill="0.889"/>
<pad name="11" x="-2.54" y="-2.54" drill="0.889"/>
<pad name="12" x="-2.54" y="0" drill="0.889"/>
<pad name="13" x="0" y="-2.54" drill="0.889"/>
<pad name="14" x="0" y="0" drill="0.889"/>
<pad name="15" x="-21.1328" y="-0.7366" drill="2.9464"/>
<pad name="16" x="5.8928" y="-0.7366" drill="2.9464"/>
<text x="-17.3482" y="-3.175" size="1.27" layer="21" ratio="6" rot="SR0">1</text>
<text x="-17.3482" y="-0.635" size="1.27" layer="21" ratio="6" rot="SR0">2</text>
<text x="0.381" y="-3.175" size="1.27" layer="21" ratio="6" rot="SR0">13</text>
<text x="0.381" y="-0.635" size="1.27" layer="21" ratio="6" rot="SR0">14</text>
<text x="-17.3482" y="-3.175" size="1.27" layer="51" ratio="6" rot="SR0">1</text>
<text x="-17.3482" y="-0.635" size="1.27" layer="51" ratio="6" rot="SR0">2</text>
<text x="0.381" y="-3.175" size="1.27" layer="51" ratio="6" rot="SR0">13</text>
<text x="0.381" y="-0.635" size="1.27" layer="51" ratio="6" rot="SR0">14</text>
<text x="-12.065" y="13.843" size="2.0828" layer="25" ratio="10" rot="SR0">&gt;NAME</text>
<text x="-13.1572" y="-6.1976" size="2.0828" layer="27" ratio="10" rot="SR0">&gt;VALUE</text>
</package>
<package name="3M_N3431-5302RB">
<wire x1="31.2928" y1="0.2032" x2="31.2928" y2="13.462" width="0.1524" layer="21"/>
<wire x1="-31.2928" y1="-1.7018" x2="-31.2928" y2="-3.8354" width="0.1524" layer="21"/>
<wire x1="-31.2928" y1="-3.8354" x2="31.2928" y2="-3.8354" width="0.1524" layer="21"/>
<wire x1="31.2928" y1="-3.8354" x2="31.2928" y2="-1.7018" width="0.1524" layer="21"/>
<wire x1="31.2928" y1="13.462" x2="-31.2928" y2="13.462" width="0.1524" layer="21"/>
<wire x1="-31.2928" y1="13.462" x2="-31.2928" y2="0.2032" width="0.1524" layer="21"/>
<wire x1="-20.0406" y1="-5.4356" x2="-20.8026" y2="-5.4356" width="0.508" layer="21" curve="-180"/>
<wire x1="-20.8026" y1="-5.4356" x2="-20.0406" y2="-5.4356" width="0.508" layer="21" curve="-180"/>
<wire x1="-31.242" y1="-3.8354" x2="31.242" y2="-3.8354" width="0.1524" layer="51"/>
<wire x1="31.242" y1="-3.8354" x2="31.242" y2="13.462" width="0.1524" layer="51"/>
<wire x1="31.242" y1="13.462" x2="-31.242" y2="13.462" width="0.1524" layer="51"/>
<wire x1="-31.242" y1="13.462" x2="-31.242" y2="-3.8354" width="0.1524" layer="51"/>
<wire x1="-20.0406" y1="-5.4356" x2="-20.8026" y2="-5.4356" width="0.508" layer="51" curve="-180"/>
<wire x1="-20.8026" y1="-5.4356" x2="-20.0406" y2="-5.4356" width="0.508" layer="51" curve="-180"/>
<pad name="1" x="-20.32" y="-2.54" drill="0.9906" shape="square"/>
<pad name="2" x="-20.32" y="0" drill="0.9906"/>
<pad name="3" x="-17.78" y="-2.54" drill="0.9906"/>
<pad name="4" x="-17.78" y="0" drill="0.9906"/>
<pad name="5" x="-15.24" y="-2.54" drill="0.9906"/>
<pad name="6" x="-15.24" y="0" drill="0.9906"/>
<pad name="7" x="-12.7" y="-2.54" drill="0.9906"/>
<pad name="8" x="-12.7" y="0" drill="0.9906"/>
<pad name="9" x="-10.16" y="-2.54" drill="0.9906"/>
<pad name="10" x="-10.16" y="0" drill="0.9906"/>
<pad name="11" x="-7.62" y="-2.54" drill="0.9906"/>
<pad name="12" x="-7.62" y="0" drill="0.9906"/>
<pad name="13" x="-5.08" y="-2.54" drill="0.9906"/>
<pad name="14" x="-5.08" y="0" drill="0.9906"/>
<pad name="15" x="-2.54" y="-2.54" drill="0.9906"/>
<pad name="16" x="-2.54" y="0" drill="0.9906"/>
<pad name="17" x="0" y="-2.54" drill="0.9906"/>
<pad name="18" x="0" y="0" drill="0.9906"/>
<pad name="19" x="2.54" y="-2.54" drill="0.9906"/>
<pad name="20" x="2.54" y="0" drill="0.9906"/>
<pad name="21" x="5.08" y="-2.54" drill="0.9906"/>
<pad name="22" x="5.08" y="0" drill="0.9906"/>
<pad name="23" x="7.62" y="-2.54" drill="0.9906"/>
<pad name="24" x="7.62" y="0" drill="0.9906"/>
<pad name="25" x="10.16" y="-2.54" drill="0.9906"/>
<pad name="26" x="10.16" y="0" drill="0.9906"/>
<pad name="27" x="12.7" y="-2.54" drill="0.9906"/>
<pad name="28" x="12.7" y="0" drill="0.9906"/>
<pad name="29" x="15.24" y="-2.54" drill="0.9906"/>
<pad name="30" x="15.24" y="0" drill="0.9906"/>
<pad name="31" x="17.78" y="-2.54" drill="0.9906"/>
<pad name="32" x="17.78" y="0" drill="0.9906"/>
<pad name="33" x="20.32" y="-2.54" drill="0.9906"/>
<pad name="34" x="20.32" y="0" drill="0.9906"/>
<pad name="35" x="-26.2255" y="-0.7366" drill="2.9464"/>
<pad name="36" x="26.2255" y="-0.7366" drill="2.9464"/>
<text x="-23.2664" y="-3.1496" size="1.27" layer="21" ratio="6" rot="SR0">1</text>
<text x="-23.2664" y="-0.6096" size="1.27" layer="21" ratio="6" rot="SR0">2</text>
<text x="21.5138" y="-3.0988" size="1.27" layer="21" ratio="6" rot="SR0">33</text>
<text x="21.5138" y="-0.5588" size="1.27" layer="21" ratio="6" rot="SR0">34</text>
<text x="-23.2664" y="-3.1496" size="1.27" layer="51" ratio="6" rot="SR0">1</text>
<text x="-23.2664" y="-0.6096" size="1.27" layer="51" ratio="6" rot="SR0">2</text>
<text x="21.5138" y="-3.0988" size="1.27" layer="51" ratio="6" rot="SR0">33</text>
<text x="21.5138" y="-0.5588" size="1.27" layer="51" ratio="6" rot="SR0">34</text>
<text x="-5.5118" y="15.0876" size="2.0828" layer="25" ratio="10" rot="SR0">&gt;NAME</text>
<text x="-5.9944" y="-6.5532" size="2.0828" layer="27" ratio="10" rot="SR0">&gt;VALUE</text>
<wire x1="1.905" y1="13.335" x2="1.905" y2="5.715" width="0.127" layer="51"/>
<wire x1="1.905" y1="5.715" x2="-1.905" y2="5.715" width="0.127" layer="51"/>
<wire x1="-1.905" y1="5.715" x2="-1.905" y2="13.335" width="0.127" layer="51"/>
</package>
<package name="SOT23">
<description>&lt;b&gt;SOT-23&lt;/b&gt;</description>
<wire x1="1.4224" y1="0.6604" x2="1.4224" y2="-0.6604" width="0.1524" layer="51"/>
<wire x1="1.4224" y1="-0.6604" x2="-1.4224" y2="-0.6604" width="0.1524" layer="51"/>
<wire x1="-1.4224" y1="-0.6604" x2="-1.4224" y2="0.6604" width="0.1524" layer="51"/>
<wire x1="-1.4224" y1="0.6604" x2="1.4224" y2="0.6604" width="0.1524" layer="51"/>
<smd name="3" x="0" y="1.1" dx="1" dy="1.4" layer="1"/>
<smd name="2" x="0.95" y="-1.1" dx="1" dy="1.4" layer="1"/>
<smd name="1" x="-0.95" y="-1.1" dx="1" dy="1.4" layer="1"/>
<text x="-1.905" y="1.905" size="1.27" layer="25">&gt;NAME</text>
<text x="-1.905" y="-3.175" size="1.27" layer="27">&gt;VALUE</text>
<rectangle x1="-0.2286" y1="0.7112" x2="0.2286" y2="1.2954" layer="51"/>
<rectangle x1="0.7112" y1="-1.2954" x2="1.1684" y2="-0.7112" layer="51"/>
<rectangle x1="-1.1684" y1="-1.2954" x2="-0.7112" y2="-0.7112" layer="51"/>
</package>
<package name="SCHA5B0200">
<description>MicroSD Push-push Reverse Mount connector
Alps SCHA5B0200</description>
<smd name="P$1" x="-7.3875" y="0" dx="1.5" dy="1.5" layer="1"/>
<smd name="P$2" x="7.3875" y="0" dx="1.5" dy="1.5" layer="1"/>
<smd name="CMD" x="-7.45" y="1.965" dx="1.3" dy="0.45" layer="1"/>
<smd name="VDD" x="-7.45" y="1.265" dx="1.3" dy="0.45" layer="1"/>
<smd name="DAT3/CD" x="-7.45" y="2.665" dx="1.3" dy="0.45" layer="1"/>
<smd name="DAT2" x="-7.45" y="3.365" dx="1.3" dy="0.45" layer="1"/>
<smd name="VSS" x="7.45" y="1.965" dx="1.3" dy="0.45" layer="1"/>
<smd name="CLK" x="7.45" y="1.265" dx="1.3" dy="0.45" layer="1"/>
<smd name="DAT0" x="7.45" y="2.665" dx="1.3" dy="0.45" layer="1"/>
<smd name="DAT1" x="7.45" y="3.365" dx="1.3" dy="0.45" layer="1"/>
<smd name="P$11" x="-7.45" y="11" dx="1.3" dy="2" layer="1"/>
<smd name="P$12" x="7.45" y="9.7" dx="1.3" dy="2" layer="1"/>
<wire x1="-7.25" y1="-1.4" x2="7.25" y2="-1.4" width="0.127" layer="21"/>
<wire x1="-7.25" y1="13.8" x2="-7.25" y2="-1.4" width="0.127" layer="21"/>
<wire x1="-7.25" y1="13.8" x2="7.25" y2="13.8" width="0.127" layer="21"/>
<wire x1="7.25" y1="13.8" x2="7.25" y2="-1.4" width="0.127" layer="21"/>
<polygon width="0.127" layer="21">
<vertex x="5.66" y="-0.8"/>
<vertex x="6.26" y="-1.4"/>
<vertex x="-5.54" y="-1.4"/>
<vertex x="-4.94" y="-0.8"/>
</polygon>
<smd name="CD_SW" x="-5.975" y="13.55" dx="0.5" dy="1.3" layer="1"/>
<smd name="COMMON" x="3.775" y="13.55" dx="0.5" dy="1.3" layer="1"/>
<smd name="P$15" x="-3.425" y="14.025" dx="1.2" dy="1.15" layer="1"/>
<smd name="P$16" x="2.575" y="14.025" dx="1.2" dy="1.15" layer="1"/>
<text x="-5.5" y="11" size="1.27" layer="25">&gt;Name</text>
<text x="-7" y="15" size="1.27" layer="27">value</text>
</package>
<package name="NOKIA5110">
<pad name="DIN" x="3.302" y="23.495" drill="0.8" shape="long"/>
<pad name="CLK" x="3.302" y="20.955" drill="0.8" shape="long"/>
<pad name="DC" x="3.302" y="26.035" drill="0.8" shape="long"/>
<pad name="VCC" x="3.302" y="18.415" drill="0.8" shape="long"/>
<pad name="BL" x="3.302" y="15.875" drill="0.8" shape="long"/>
<pad name="GND" x="3.302" y="13.335" drill="0.8" shape="octagon"/>
<pad name="CE" x="3.302" y="28.575" drill="0.8" shape="long"/>
<pad name="RST" x="3.302" y="31.115" drill="0.8" shape="long"/>
<wire x1="0" y1="0" x2="45.339" y2="0" width="0.127" layer="21"/>
<wire x1="45.339" y1="0" x2="45.339" y2="42.7228" width="0.127" layer="21"/>
<wire x1="45.339" y1="42.7228" x2="0" y2="42.7228" width="0.127" layer="21"/>
<wire x1="0" y1="42.7228" x2="0" y2="0" width="0.127" layer="21"/>
<hole x="2.5019" y="4.1275" drill="3.175"/>
<hole x="42.9133" y="4.1275" drill="3.175"/>
<hole x="2.5019" y="38.6969" drill="3.175"/>
<hole x="42.9133" y="38.6969" drill="3.175"/>
</package>
<package name="SOP127P1064X265-18N">
<smd name="1" x="-4.826" y="5.08" dx="1.6764" dy="0.5588" layer="1"/>
<smd name="2" x="-4.826" y="3.81" dx="1.6764" dy="0.5588" layer="1"/>
<smd name="3" x="-4.826" y="2.54" dx="1.6764" dy="0.5588" layer="1"/>
<smd name="4" x="-4.826" y="1.27" dx="1.6764" dy="0.5588" layer="1"/>
<smd name="5" x="-4.826" y="0" dx="1.6764" dy="0.5588" layer="1"/>
<smd name="6" x="-4.826" y="-1.27" dx="1.6764" dy="0.5588" layer="1"/>
<smd name="7" x="-4.826" y="-2.54" dx="1.6764" dy="0.5588" layer="1"/>
<smd name="8" x="-4.826" y="-3.81" dx="1.6764" dy="0.5588" layer="1"/>
<smd name="9" x="-4.826" y="-5.08" dx="1.6764" dy="0.5588" layer="1"/>
<smd name="10" x="4.826" y="-5.08" dx="1.6764" dy="0.5588" layer="1"/>
<smd name="11" x="4.826" y="-3.81" dx="1.6764" dy="0.5588" layer="1"/>
<smd name="12" x="4.826" y="-2.54" dx="1.6764" dy="0.5588" layer="1"/>
<smd name="13" x="4.826" y="-1.27" dx="1.6764" dy="0.5588" layer="1"/>
<smd name="14" x="4.826" y="0" dx="1.6764" dy="0.5588" layer="1"/>
<smd name="15" x="4.826" y="1.27" dx="1.6764" dy="0.5588" layer="1"/>
<smd name="16" x="4.826" y="2.54" dx="1.6764" dy="0.5588" layer="1"/>
<smd name="17" x="4.826" y="3.81" dx="1.6764" dy="0.5588" layer="1"/>
<smd name="18" x="4.826" y="5.08" dx="1.6764" dy="0.5588" layer="1"/>
<wire x1="-3.81" y1="4.826" x2="-3.81" y2="5.334" width="0" layer="51"/>
<wire x1="-3.81" y1="5.334" x2="-5.334" y2="5.334" width="0" layer="51"/>
<wire x1="-5.334" y1="5.334" x2="-5.334" y2="4.826" width="0" layer="51"/>
<wire x1="-5.334" y1="4.826" x2="-3.81" y2="4.826" width="0" layer="51"/>
<wire x1="-3.81" y1="3.556" x2="-3.81" y2="4.064" width="0" layer="51"/>
<wire x1="-3.81" y1="4.064" x2="-5.334" y2="4.064" width="0" layer="51"/>
<wire x1="-5.334" y1="4.064" x2="-5.334" y2="3.556" width="0" layer="51"/>
<wire x1="-5.334" y1="3.556" x2="-3.81" y2="3.556" width="0" layer="51"/>
<wire x1="-3.81" y1="2.286" x2="-3.81" y2="2.794" width="0" layer="51"/>
<wire x1="-3.81" y1="2.794" x2="-5.334" y2="2.794" width="0" layer="51"/>
<wire x1="-5.334" y1="2.794" x2="-5.334" y2="2.286" width="0" layer="51"/>
<wire x1="-5.334" y1="2.286" x2="-3.81" y2="2.286" width="0" layer="51"/>
<wire x1="-3.81" y1="1.016" x2="-3.81" y2="1.524" width="0" layer="51"/>
<wire x1="-3.81" y1="1.524" x2="-5.334" y2="1.524" width="0" layer="51"/>
<wire x1="-5.334" y1="1.524" x2="-5.334" y2="1.016" width="0" layer="51"/>
<wire x1="-5.334" y1="1.016" x2="-3.81" y2="1.016" width="0" layer="51"/>
<wire x1="-3.81" y1="-0.254" x2="-3.81" y2="0.254" width="0" layer="51"/>
<wire x1="-3.81" y1="0.254" x2="-5.334" y2="0.254" width="0" layer="51"/>
<wire x1="-5.334" y1="0.254" x2="-5.334" y2="-0.254" width="0" layer="51"/>
<wire x1="-5.334" y1="-0.254" x2="-3.81" y2="-0.254" width="0" layer="51"/>
<wire x1="-3.81" y1="-1.524" x2="-3.81" y2="-1.016" width="0" layer="51"/>
<wire x1="-3.81" y1="-1.016" x2="-5.334" y2="-1.016" width="0" layer="51"/>
<wire x1="-5.334" y1="-1.016" x2="-5.334" y2="-1.524" width="0" layer="51"/>
<wire x1="-5.334" y1="-1.524" x2="-3.81" y2="-1.524" width="0" layer="51"/>
<wire x1="-3.81" y1="-2.794" x2="-3.81" y2="-2.286" width="0" layer="51"/>
<wire x1="-3.81" y1="-2.286" x2="-5.334" y2="-2.286" width="0" layer="51"/>
<wire x1="-5.334" y1="-2.286" x2="-5.334" y2="-2.794" width="0" layer="51"/>
<wire x1="-5.334" y1="-2.794" x2="-3.81" y2="-2.794" width="0" layer="51"/>
<wire x1="-3.81" y1="-4.064" x2="-3.81" y2="-3.556" width="0" layer="51"/>
<wire x1="-3.81" y1="-3.556" x2="-5.334" y2="-3.556" width="0" layer="51"/>
<wire x1="-5.334" y1="-3.556" x2="-5.334" y2="-4.064" width="0" layer="51"/>
<wire x1="-5.334" y1="-4.064" x2="-3.81" y2="-4.064" width="0" layer="51"/>
<wire x1="-3.81" y1="-5.334" x2="-3.81" y2="-4.826" width="0" layer="51"/>
<wire x1="-3.81" y1="-4.826" x2="-5.334" y2="-4.826" width="0" layer="51"/>
<wire x1="-5.334" y1="-4.826" x2="-5.334" y2="-5.334" width="0" layer="51"/>
<wire x1="-5.334" y1="-5.334" x2="-3.81" y2="-5.334" width="0" layer="51"/>
<wire x1="3.81" y1="-4.826" x2="3.81" y2="-5.334" width="0" layer="51"/>
<wire x1="3.81" y1="-5.334" x2="5.334" y2="-5.334" width="0" layer="51"/>
<wire x1="5.334" y1="-5.334" x2="5.334" y2="-4.826" width="0" layer="51"/>
<wire x1="5.334" y1="-4.826" x2="3.81" y2="-4.826" width="0" layer="51"/>
<wire x1="3.81" y1="-3.556" x2="3.81" y2="-4.064" width="0" layer="51"/>
<wire x1="3.81" y1="-4.064" x2="5.334" y2="-4.064" width="0" layer="51"/>
<wire x1="5.334" y1="-4.064" x2="5.334" y2="-3.556" width="0" layer="51"/>
<wire x1="5.334" y1="-3.556" x2="3.81" y2="-3.556" width="0" layer="51"/>
<wire x1="3.81" y1="-2.286" x2="3.81" y2="-2.794" width="0" layer="51"/>
<wire x1="3.81" y1="-2.794" x2="5.334" y2="-2.794" width="0" layer="51"/>
<wire x1="5.334" y1="-2.794" x2="5.334" y2="-2.286" width="0" layer="51"/>
<wire x1="5.334" y1="-2.286" x2="3.81" y2="-2.286" width="0" layer="51"/>
<wire x1="3.81" y1="-1.016" x2="3.81" y2="-1.524" width="0" layer="51"/>
<wire x1="3.81" y1="-1.524" x2="5.334" y2="-1.524" width="0" layer="51"/>
<wire x1="5.334" y1="-1.524" x2="5.334" y2="-1.016" width="0" layer="51"/>
<wire x1="5.334" y1="-1.016" x2="3.81" y2="-1.016" width="0" layer="51"/>
<wire x1="3.81" y1="0.254" x2="3.81" y2="-0.254" width="0" layer="51"/>
<wire x1="3.81" y1="-0.254" x2="5.334" y2="-0.254" width="0" layer="51"/>
<wire x1="5.334" y1="-0.254" x2="5.334" y2="0.254" width="0" layer="51"/>
<wire x1="5.334" y1="0.254" x2="3.81" y2="0.254" width="0" layer="51"/>
<wire x1="3.81" y1="1.524" x2="3.81" y2="1.016" width="0" layer="51"/>
<wire x1="3.81" y1="1.016" x2="5.334" y2="1.016" width="0" layer="51"/>
<wire x1="5.334" y1="1.016" x2="5.334" y2="1.524" width="0" layer="51"/>
<wire x1="5.334" y1="1.524" x2="3.81" y2="1.524" width="0" layer="51"/>
<wire x1="3.81" y1="2.794" x2="3.81" y2="2.286" width="0" layer="51"/>
<wire x1="3.81" y1="2.286" x2="5.334" y2="2.286" width="0" layer="51"/>
<wire x1="5.334" y1="2.286" x2="5.334" y2="2.794" width="0" layer="51"/>
<wire x1="5.334" y1="2.794" x2="3.81" y2="2.794" width="0" layer="51"/>
<wire x1="3.81" y1="4.064" x2="3.81" y2="3.556" width="0" layer="51"/>
<wire x1="3.81" y1="3.556" x2="5.334" y2="3.556" width="0" layer="51"/>
<wire x1="5.334" y1="3.556" x2="5.334" y2="4.064" width="0" layer="51"/>
<wire x1="5.334" y1="4.064" x2="3.81" y2="4.064" width="0" layer="51"/>
<wire x1="3.81" y1="5.334" x2="3.81" y2="4.826" width="0" layer="51"/>
<wire x1="3.81" y1="4.826" x2="5.334" y2="4.826" width="0" layer="51"/>
<wire x1="5.334" y1="4.826" x2="5.334" y2="5.334" width="0" layer="51"/>
<wire x1="5.334" y1="5.334" x2="3.81" y2="5.334" width="0" layer="51"/>
<wire x1="-3.81" y1="-5.842" x2="3.81" y2="-5.842" width="0" layer="51"/>
<wire x1="3.81" y1="-5.842" x2="3.81" y2="5.842" width="0" layer="51"/>
<wire x1="3.81" y1="5.842" x2="0.3048" y2="5.842" width="0" layer="51"/>
<wire x1="0.3048" y1="5.842" x2="-0.3048" y2="5.842" width="0" layer="51"/>
<wire x1="-0.3048" y1="5.842" x2="-3.81" y2="5.842" width="0" layer="51"/>
<wire x1="-3.81" y1="5.842" x2="-3.81" y2="-5.842" width="0" layer="51"/>
<wire x1="0.3048" y1="5.842" x2="-0.3048" y2="5.842" width="0" layer="51" curve="-180"/>
<text x="-5.6642" y="5.5118" size="1.27" layer="51" ratio="6" rot="SR0">*</text>
<wire x1="6.0198" y1="-5.08" x2="7.0358" y2="-5.08" width="0.1524" layer="21"/>
<wire x1="3.81" y1="5.6388" x2="3.81" y2="5.842" width="0.1524" layer="21"/>
<wire x1="3.81" y1="4.3688" x2="3.81" y2="4.5212" width="0.1524" layer="21"/>
<wire x1="3.81" y1="3.0988" x2="3.81" y2="3.2512" width="0.1524" layer="21"/>
<wire x1="3.81" y1="1.8288" x2="3.81" y2="1.9812" width="0.1524" layer="21"/>
<wire x1="3.81" y1="0.5588" x2="3.81" y2="0.7112" width="0.1524" layer="21"/>
<wire x1="3.81" y1="-0.7112" x2="3.81" y2="-0.5588" width="0.1524" layer="21"/>
<wire x1="-3.81" y1="-5.842" x2="3.81" y2="-5.842" width="0.1524" layer="21"/>
<wire x1="3.81" y1="-5.842" x2="3.81" y2="-5.6388" width="0.1524" layer="21"/>
<wire x1="3.81" y1="5.842" x2="0.3048" y2="5.842" width="0.1524" layer="21"/>
<wire x1="0.3048" y1="5.842" x2="-0.3048" y2="5.842" width="0.1524" layer="21"/>
<wire x1="-0.3048" y1="5.842" x2="-3.81" y2="5.842" width="0.1524" layer="21"/>
<wire x1="-3.81" y1="5.842" x2="-3.81" y2="5.6388" width="0.1524" layer="21"/>
<wire x1="-3.81" y1="4.5212" x2="-3.81" y2="4.3688" width="0.1524" layer="21"/>
<wire x1="-3.81" y1="3.2512" x2="-3.81" y2="3.0988" width="0.1524" layer="21"/>
<wire x1="-3.81" y1="1.9812" x2="-3.81" y2="1.8288" width="0.1524" layer="21"/>
<wire x1="-3.81" y1="0.7112" x2="-3.81" y2="0.5588" width="0.1524" layer="21"/>
<wire x1="-3.81" y1="-0.5588" x2="-3.81" y2="-0.7112" width="0.1524" layer="21"/>
<wire x1="-3.81" y1="-1.8288" x2="-3.81" y2="-1.9812" width="0.1524" layer="21"/>
<wire x1="-3.81" y1="-3.0988" x2="-3.81" y2="-3.2512" width="0.1524" layer="21"/>
<wire x1="-3.81" y1="-4.3688" x2="-3.81" y2="-4.5212" width="0.1524" layer="21"/>
<wire x1="-3.81" y1="-5.6388" x2="-3.81" y2="-5.842" width="0.1524" layer="21"/>
<wire x1="3.81" y1="-4.5212" x2="3.81" y2="-4.3688" width="0.1524" layer="21"/>
<wire x1="3.81" y1="-3.2512" x2="3.81" y2="-3.0988" width="0.1524" layer="21"/>
<wire x1="3.81" y1="-1.9812" x2="3.81" y2="-1.8288" width="0.1524" layer="21"/>
<wire x1="0.3048" y1="5.842" x2="-0.3048" y2="5.842" width="0.1524" layer="21" curve="-180"/>
<text x="-5.6642" y="5.5118" size="1.27" layer="21" ratio="6" rot="SR0">*</text>
<text x="-3.4544" y="7.62" size="2.0828" layer="25" ratio="10" rot="SR0">&gt;NAME</text>
<text x="-3.4544" y="-8.89" size="2.0828" layer="27" ratio="10" rot="SR0">&gt;VALUE</text>
</package>
<package name="TJ7A">
<smd name="1" x="-3.81" y="-8.3439" dx="0.7874" dy="2.6162" layer="1"/>
<smd name="2" x="-2.54" y="-8.3439" dx="0.7874" dy="2.6162" layer="1"/>
<smd name="3" x="-1.27" y="-8.3439" dx="0.7874" dy="2.6162" layer="1"/>
<smd name="4" x="0" y="-8.3439" dx="0.7874" dy="2.6162" layer="1"/>
<smd name="5" x="1.27" y="-8.3439" dx="0.7874" dy="2.6162" layer="1"/>
<smd name="6" x="2.54" y="-8.3439" dx="0.7874" dy="2.6162" layer="1"/>
<smd name="7" x="3.81" y="-8.3439" dx="0.7874" dy="2.6162" layer="1"/>
<smd name="8" x="0" y="0.1524" dx="10.414" dy="10.414" layer="1"/>
<wire x1="-3.4544" y1="-5.0546" x2="-4.1656" y2="-5.0546" width="0.1524" layer="25"/>
<wire x1="-4.1656" y1="-5.0546" x2="-4.1656" y2="-9.2964" width="0.1524" layer="25"/>
<wire x1="-4.1656" y1="-9.2964" x2="-3.4544" y2="-9.2964" width="0.1524" layer="25"/>
<wire x1="-3.4544" y1="-9.2964" x2="-3.4544" y2="-5.0546" width="0.1524" layer="25"/>
<wire x1="-2.1844" y1="-5.0546" x2="-2.8956" y2="-5.0546" width="0.1524" layer="25"/>
<wire x1="-2.8956" y1="-5.0546" x2="-2.8956" y2="-9.2964" width="0.1524" layer="25"/>
<wire x1="-2.8956" y1="-9.2964" x2="-2.159" y2="-9.2964" width="0.1524" layer="25"/>
<wire x1="-2.159" y1="-9.2964" x2="-2.1844" y2="-5.0546" width="0.1524" layer="25"/>
<wire x1="-0.9144" y1="-5.0546" x2="-1.6256" y2="-5.0546" width="0.1524" layer="25"/>
<wire x1="-1.6256" y1="-5.0546" x2="-1.6256" y2="-9.2964" width="0.1524" layer="25"/>
<wire x1="-1.6256" y1="-9.2964" x2="-0.889" y2="-9.2964" width="0.1524" layer="25"/>
<wire x1="-0.889" y1="-9.2964" x2="-0.9144" y2="-5.0546" width="0.1524" layer="25"/>
<wire x1="0.3556" y1="-5.0546" x2="-0.3556" y2="-5.0546" width="0.1524" layer="25"/>
<wire x1="-0.3556" y1="-5.0546" x2="-0.3556" y2="-9.2964" width="0.1524" layer="25"/>
<wire x1="-0.3556" y1="-9.2964" x2="0.381" y2="-9.2964" width="0.1524" layer="25"/>
<wire x1="0.381" y1="-9.2964" x2="0.3556" y2="-5.0546" width="0.1524" layer="25"/>
<wire x1="1.6256" y1="-5.0546" x2="0.9144" y2="-5.0546" width="0.1524" layer="25"/>
<wire x1="0.9144" y1="-5.0546" x2="0.9144" y2="-9.2964" width="0.1524" layer="25"/>
<wire x1="0.9144" y1="-9.2964" x2="1.651" y2="-9.2964" width="0.1524" layer="25"/>
<wire x1="1.651" y1="-9.2964" x2="1.6256" y2="-5.0546" width="0.1524" layer="25"/>
<wire x1="2.8956" y1="-5.0546" x2="2.1844" y2="-5.0546" width="0.1524" layer="25"/>
<wire x1="2.1844" y1="-5.0546" x2="2.1844" y2="-9.2964" width="0.1524" layer="25"/>
<wire x1="2.1844" y1="-9.2964" x2="2.8956" y2="-9.2964" width="0.1524" layer="25"/>
<wire x1="2.8956" y1="-9.2964" x2="2.8956" y2="-5.0546" width="0.1524" layer="25"/>
<wire x1="4.1656" y1="-5.0546" x2="3.4544" y2="-5.0546" width="0.1524" layer="25"/>
<wire x1="3.4544" y1="-5.0546" x2="3.4544" y2="-9.2964" width="0.1524" layer="25"/>
<wire x1="3.4544" y1="-9.2964" x2="4.1656" y2="-9.2964" width="0.1524" layer="25"/>
<wire x1="4.1656" y1="-9.2964" x2="4.1656" y2="-5.0546" width="0.1524" layer="25"/>
<wire x1="-5.207" y1="-5.0546" x2="5.207" y2="-5.0546" width="0.1524" layer="25"/>
<wire x1="5.207" y1="-5.0546" x2="5.207" y2="5.0546" width="0.1524" layer="25"/>
<wire x1="5.207" y1="5.0546" x2="-5.207" y2="5.0546" width="0.1524" layer="25"/>
<wire x1="-5.207" y1="5.0546" x2="-5.207" y2="-5.0546" width="0.1524" layer="25"/>
<text x="-5.6642" y="-8.9916" size="1.27" layer="25" ratio="6" rot="SR0">*</text>
<text x="-2.8702" y="-0.635" size="1.27" layer="25" ratio="6" rot="SR0">&gt;NAME</text>
<wire x1="-4.1656" y1="-5.6642" x2="-4.1656" y2="-6.6802" width="0.1524" layer="51"/>
<wire x1="-2.8956" y1="-5.6642" x2="-2.8956" y2="-6.6802" width="0.1524" layer="51"/>
<wire x1="-1.6256" y1="-5.6642" x2="-1.6256" y2="-6.6802" width="0.1524" layer="51"/>
<wire x1="-0.3556" y1="-5.6642" x2="-0.3556" y2="-6.6802" width="0.1524" layer="51"/>
<wire x1="0.9144" y1="-5.6642" x2="0.9144" y2="-6.6802" width="0.1524" layer="51"/>
<wire x1="2.1844" y1="-5.6642" x2="2.1844" y2="-6.6802" width="0.1524" layer="51"/>
<wire x1="3.4544" y1="-5.6642" x2="3.4544" y2="-6.6802" width="0.1524" layer="51"/>
<wire x1="-3.4544" y1="-5.6642" x2="-3.4544" y2="-6.6802" width="0.1524" layer="51"/>
<wire x1="-2.1844" y1="-5.6642" x2="-2.1844" y2="-6.6802" width="0.1524" layer="51"/>
<wire x1="-0.9144" y1="-5.6642" x2="-0.9144" y2="-6.6802" width="0.1524" layer="51"/>
<wire x1="0.3556" y1="-5.6642" x2="0.3556" y2="-6.6802" width="0.1524" layer="51"/>
<wire x1="1.6256" y1="-5.6642" x2="1.6256" y2="-6.6802" width="0.1524" layer="51"/>
<wire x1="2.8956" y1="-5.6642" x2="2.8956" y2="-6.6802" width="0.1524" layer="51"/>
<wire x1="4.1656" y1="-5.6642" x2="4.1656" y2="-6.6802" width="0.1524" layer="51"/>
<text x="-5.6642" y="-8.9916" size="1.27" layer="51" ratio="6" rot="SR0">*</text>
<text x="-3.4544" y="-0.635" size="1.27" layer="27" ratio="6" rot="SR0">&gt;VALUE</text>
</package>
<package name="TJ7A-M">
<smd name="1" x="-3.81" y="-8.3947" dx="0.8382" dy="2.921" layer="1"/>
<smd name="2" x="-2.54" y="-8.3947" dx="0.8382" dy="2.921" layer="1"/>
<smd name="3" x="-1.27" y="-8.3947" dx="0.8382" dy="2.921" layer="1"/>
<smd name="4" x="0" y="-8.3947" dx="0.8382" dy="2.921" layer="1"/>
<smd name="5" x="1.27" y="-8.3947" dx="0.8382" dy="2.921" layer="1"/>
<smd name="6" x="2.54" y="-8.3947" dx="0.8382" dy="2.921" layer="1"/>
<smd name="7" x="3.81" y="-8.3947" dx="0.8382" dy="2.921" layer="1"/>
<smd name="8" x="0" y="0.2032" dx="10.414" dy="10.5156" layer="1"/>
<wire x1="-3.4544" y1="-5.0546" x2="-4.1656" y2="-5.0546" width="0.1524" layer="25"/>
<wire x1="-4.1656" y1="-5.0546" x2="-4.1656" y2="-9.2964" width="0.1524" layer="25"/>
<wire x1="-4.1656" y1="-9.2964" x2="-3.4544" y2="-9.2964" width="0.1524" layer="25"/>
<wire x1="-3.4544" y1="-9.2964" x2="-3.4544" y2="-5.0546" width="0.1524" layer="25"/>
<wire x1="-2.1844" y1="-5.0546" x2="-2.8956" y2="-5.0546" width="0.1524" layer="25"/>
<wire x1="-2.8956" y1="-5.0546" x2="-2.8956" y2="-9.2964" width="0.1524" layer="25"/>
<wire x1="-2.8956" y1="-9.2964" x2="-2.159" y2="-9.2964" width="0.1524" layer="25"/>
<wire x1="-2.159" y1="-9.2964" x2="-2.1844" y2="-5.0546" width="0.1524" layer="25"/>
<wire x1="-0.9144" y1="-5.0546" x2="-1.6256" y2="-5.0546" width="0.1524" layer="25"/>
<wire x1="-1.6256" y1="-5.0546" x2="-1.6256" y2="-9.2964" width="0.1524" layer="25"/>
<wire x1="-1.6256" y1="-9.2964" x2="-0.889" y2="-9.2964" width="0.1524" layer="25"/>
<wire x1="-0.889" y1="-9.2964" x2="-0.9144" y2="-5.0546" width="0.1524" layer="25"/>
<wire x1="0.3556" y1="-5.0546" x2="-0.3556" y2="-5.0546" width="0.1524" layer="25"/>
<wire x1="-0.3556" y1="-5.0546" x2="-0.3556" y2="-9.2964" width="0.1524" layer="25"/>
<wire x1="-0.3556" y1="-9.2964" x2="0.381" y2="-9.2964" width="0.1524" layer="25"/>
<wire x1="0.381" y1="-9.2964" x2="0.3556" y2="-5.0546" width="0.1524" layer="25"/>
<wire x1="1.6256" y1="-5.0546" x2="0.9144" y2="-5.0546" width="0.1524" layer="25"/>
<wire x1="0.9144" y1="-5.0546" x2="0.9144" y2="-9.2964" width="0.1524" layer="25"/>
<wire x1="0.9144" y1="-9.2964" x2="1.651" y2="-9.2964" width="0.1524" layer="25"/>
<wire x1="1.651" y1="-9.2964" x2="1.6256" y2="-5.0546" width="0.1524" layer="25"/>
<wire x1="2.8956" y1="-5.0546" x2="2.1844" y2="-5.0546" width="0.1524" layer="25"/>
<wire x1="2.1844" y1="-5.0546" x2="2.1844" y2="-9.2964" width="0.1524" layer="25"/>
<wire x1="2.1844" y1="-9.2964" x2="2.8956" y2="-9.2964" width="0.1524" layer="25"/>
<wire x1="2.8956" y1="-9.2964" x2="2.8956" y2="-5.0546" width="0.1524" layer="25"/>
<wire x1="4.1656" y1="-5.0546" x2="3.4544" y2="-5.0546" width="0.1524" layer="25"/>
<wire x1="3.4544" y1="-5.0546" x2="3.4544" y2="-9.2964" width="0.1524" layer="25"/>
<wire x1="3.4544" y1="-9.2964" x2="4.1656" y2="-9.2964" width="0.1524" layer="25"/>
<wire x1="4.1656" y1="-9.2964" x2="4.1656" y2="-5.0546" width="0.1524" layer="25"/>
<wire x1="-5.207" y1="-5.0546" x2="5.207" y2="-5.0546" width="0.1524" layer="25"/>
<wire x1="5.207" y1="-5.0546" x2="5.207" y2="5.0546" width="0.1524" layer="25"/>
<wire x1="5.207" y1="5.0546" x2="-5.207" y2="5.0546" width="0.1524" layer="25"/>
<wire x1="-5.207" y1="5.0546" x2="-5.207" y2="-5.0546" width="0.1524" layer="25"/>
<text x="-5.6642" y="-9.0424" size="1.27" layer="25" ratio="6" rot="SR0">*</text>
<text x="-2.8702" y="-0.635" size="1.27" layer="25" ratio="6" rot="SR0">&gt;NAME</text>
<wire x1="-4.1656" y1="-5.6642" x2="-4.1656" y2="-6.5786" width="0.1524" layer="51"/>
<wire x1="-2.8956" y1="-5.6642" x2="-2.8956" y2="-6.5786" width="0.1524" layer="51"/>
<wire x1="-1.6256" y1="-5.6642" x2="-1.6256" y2="-6.5786" width="0.1524" layer="51"/>
<wire x1="-0.3556" y1="-5.6642" x2="-0.3556" y2="-6.5786" width="0.1524" layer="51"/>
<wire x1="0.9144" y1="-5.6642" x2="0.9144" y2="-6.5786" width="0.1524" layer="51"/>
<wire x1="2.1844" y1="-5.6642" x2="2.1844" y2="-6.5786" width="0.1524" layer="51"/>
<wire x1="3.4544" y1="-5.6642" x2="3.4544" y2="-6.5786" width="0.1524" layer="51"/>
<wire x1="-3.4544" y1="-5.6642" x2="-3.4544" y2="-6.5786" width="0.1524" layer="51"/>
<wire x1="-2.1844" y1="-5.6642" x2="-2.1844" y2="-6.5786" width="0.1524" layer="51"/>
<wire x1="-0.9144" y1="-5.6642" x2="-0.9144" y2="-6.5786" width="0.1524" layer="51"/>
<wire x1="0.3556" y1="-5.6642" x2="0.3556" y2="-6.5786" width="0.1524" layer="51"/>
<wire x1="1.6256" y1="-5.6642" x2="1.6256" y2="-6.5786" width="0.1524" layer="51"/>
<wire x1="2.8956" y1="-5.6642" x2="2.8956" y2="-6.5786" width="0.1524" layer="51"/>
<wire x1="4.1656" y1="-5.6642" x2="4.1656" y2="-6.5786" width="0.1524" layer="51"/>
<text x="-5.6642" y="-9.0424" size="1.27" layer="51" ratio="6" rot="SR0">*</text>
<text x="-3.4544" y="-0.635" size="1.27" layer="27" ratio="6" rot="SR0">&gt;VALUE</text>
</package>
<package name="TJ7A-L">
<smd name="1" x="-3.81" y="-8.2931" dx="0.7366" dy="2.3114" layer="1"/>
<smd name="2" x="-2.54" y="-8.2931" dx="0.7366" dy="2.3114" layer="1"/>
<smd name="3" x="-1.27" y="-8.2931" dx="0.7366" dy="2.3114" layer="1"/>
<smd name="4" x="0" y="-8.2931" dx="0.7366" dy="2.3114" layer="1"/>
<smd name="5" x="1.27" y="-8.2931" dx="0.7366" dy="2.3114" layer="1"/>
<smd name="6" x="2.54" y="-8.2931" dx="0.7366" dy="2.3114" layer="1"/>
<smd name="7" x="3.81" y="-8.2931" dx="0.7366" dy="2.3114" layer="1"/>
<smd name="8" x="0" y="0.1016" dx="10.414" dy="10.3124" layer="1"/>
<wire x1="-3.4544" y1="-5.0546" x2="-4.1656" y2="-5.0546" width="0.1524" layer="25"/>
<wire x1="-4.1656" y1="-5.0546" x2="-4.1656" y2="-9.2964" width="0.1524" layer="25"/>
<wire x1="-4.1656" y1="-9.2964" x2="-3.4544" y2="-9.2964" width="0.1524" layer="25"/>
<wire x1="-3.4544" y1="-9.2964" x2="-3.4544" y2="-5.0546" width="0.1524" layer="25"/>
<wire x1="-2.1844" y1="-5.0546" x2="-2.8956" y2="-5.0546" width="0.1524" layer="25"/>
<wire x1="-2.8956" y1="-5.0546" x2="-2.8956" y2="-9.2964" width="0.1524" layer="25"/>
<wire x1="-2.8956" y1="-9.2964" x2="-2.159" y2="-9.2964" width="0.1524" layer="25"/>
<wire x1="-2.159" y1="-9.2964" x2="-2.1844" y2="-5.0546" width="0.1524" layer="25"/>
<wire x1="-0.9144" y1="-5.0546" x2="-1.6256" y2="-5.0546" width="0.1524" layer="25"/>
<wire x1="-1.6256" y1="-5.0546" x2="-1.6256" y2="-9.2964" width="0.1524" layer="25"/>
<wire x1="-1.6256" y1="-9.2964" x2="-0.889" y2="-9.2964" width="0.1524" layer="25"/>
<wire x1="-0.889" y1="-9.2964" x2="-0.9144" y2="-5.0546" width="0.1524" layer="25"/>
<wire x1="0.3556" y1="-5.0546" x2="-0.3556" y2="-5.0546" width="0.1524" layer="25"/>
<wire x1="-0.3556" y1="-5.0546" x2="-0.3556" y2="-9.2964" width="0.1524" layer="25"/>
<wire x1="-0.3556" y1="-9.2964" x2="0.381" y2="-9.2964" width="0.1524" layer="25"/>
<wire x1="0.381" y1="-9.2964" x2="0.3556" y2="-5.0546" width="0.1524" layer="25"/>
<wire x1="1.6256" y1="-5.0546" x2="0.9144" y2="-5.0546" width="0.1524" layer="25"/>
<wire x1="0.9144" y1="-5.0546" x2="0.9144" y2="-9.2964" width="0.1524" layer="25"/>
<wire x1="0.9144" y1="-9.2964" x2="1.651" y2="-9.2964" width="0.1524" layer="25"/>
<wire x1="1.651" y1="-9.2964" x2="1.6256" y2="-5.0546" width="0.1524" layer="25"/>
<wire x1="2.8956" y1="-5.0546" x2="2.1844" y2="-5.0546" width="0.1524" layer="25"/>
<wire x1="2.1844" y1="-5.0546" x2="2.1844" y2="-9.2964" width="0.1524" layer="25"/>
<wire x1="2.1844" y1="-9.2964" x2="2.8956" y2="-9.2964" width="0.1524" layer="25"/>
<wire x1="2.8956" y1="-9.2964" x2="2.8956" y2="-5.0546" width="0.1524" layer="25"/>
<wire x1="4.1656" y1="-5.0546" x2="3.4544" y2="-5.0546" width="0.1524" layer="25"/>
<wire x1="3.4544" y1="-5.0546" x2="3.4544" y2="-9.2964" width="0.1524" layer="25"/>
<wire x1="3.4544" y1="-9.2964" x2="4.1656" y2="-9.2964" width="0.1524" layer="25"/>
<wire x1="4.1656" y1="-9.2964" x2="4.1656" y2="-5.0546" width="0.1524" layer="25"/>
<wire x1="-5.207" y1="-5.0546" x2="5.207" y2="-5.0546" width="0.1524" layer="25"/>
<wire x1="5.207" y1="-5.0546" x2="5.207" y2="5.0546" width="0.1524" layer="25"/>
<wire x1="5.207" y1="5.0546" x2="-5.207" y2="5.0546" width="0.1524" layer="25"/>
<wire x1="-5.207" y1="5.0546" x2="-5.207" y2="-5.0546" width="0.1524" layer="25"/>
<text x="-5.6642" y="-8.9408" size="1.27" layer="25" ratio="6" rot="SR0">*</text>
<text x="-2.8702" y="-0.635" size="1.27" layer="25" ratio="6" rot="SR0">&gt;NAME</text>
<wire x1="-4.1656" y1="-5.6642" x2="-4.1656" y2="-6.7818" width="0.1524" layer="51"/>
<wire x1="-2.8956" y1="-5.6642" x2="-2.8956" y2="-6.7818" width="0.1524" layer="51"/>
<wire x1="-1.6256" y1="-5.6642" x2="-1.6256" y2="-6.7818" width="0.1524" layer="51"/>
<wire x1="-0.3556" y1="-5.6642" x2="-0.3556" y2="-6.7818" width="0.1524" layer="51"/>
<wire x1="0.9144" y1="-5.6642" x2="0.9144" y2="-6.7818" width="0.1524" layer="51"/>
<wire x1="2.1844" y1="-5.6642" x2="2.1844" y2="-6.7818" width="0.1524" layer="51"/>
<wire x1="3.4544" y1="-5.6642" x2="3.4544" y2="-6.7818" width="0.1524" layer="51"/>
<wire x1="-3.4544" y1="-5.6642" x2="-3.4544" y2="-6.7818" width="0.1524" layer="51"/>
<wire x1="-2.1844" y1="-5.6642" x2="-2.1844" y2="-6.7818" width="0.1524" layer="51"/>
<wire x1="-0.9144" y1="-5.6642" x2="-0.9144" y2="-6.7818" width="0.1524" layer="51"/>
<wire x1="0.3556" y1="-5.6642" x2="0.3556" y2="-6.7818" width="0.1524" layer="51"/>
<wire x1="1.6256" y1="-5.6642" x2="1.6256" y2="-6.7818" width="0.1524" layer="51"/>
<wire x1="2.8956" y1="-5.6642" x2="2.8956" y2="-6.7818" width="0.1524" layer="51"/>
<wire x1="4.1656" y1="-5.6642" x2="4.1656" y2="-6.7818" width="0.1524" layer="51"/>
<text x="-5.6642" y="-8.9408" size="1.27" layer="51" ratio="6" rot="SR0">*</text>
<text x="-3.4544" y="-0.635" size="1.27" layer="27" ratio="6" rot="SR0">&gt;VALUE</text>
</package>
<package name="TE_SMA_STRAIGHT">
<pad name="LEG1" x="-2.54" y="2.54" drill="1.6" diameter="2.54"/>
<pad name="LEG2" x="2.54" y="2.54" drill="1.6" diameter="2.54"/>
<pad name="LEG4" x="2.54" y="-2.54" drill="1.6" diameter="2.54"/>
<pad name="LEG3" x="-2.54" y="-2.54" drill="1.6" diameter="2.54"/>
<pad name="CENTER_PIN" x="0" y="0" drill="1.5" diameter="2.54"/>
<wire x1="-3.175" y1="-3.175" x2="-3.175" y2="3.225" width="0.127" layer="21"/>
<wire x1="3.175" y1="3.175" x2="-3.225" y2="3.175" width="0.127" layer="21"/>
<wire x1="3.175" y1="3.175" x2="3.175" y2="-3.225" width="0.127" layer="21"/>
<wire x1="-3.175" y1="-3.175" x2="3.225" y2="-3.175" width="0.127" layer="21"/>
<wire x1="2.159" y1="2.286" x2="0.041" y2="2.286" width="0.127" layer="21"/>
<wire x1="0.041" y1="2.286" x2="-0.041" y2="2.286" width="0.127" layer="21"/>
<wire x1="-2.159" y1="2.286" x2="0.041" y2="2.286" width="0.127" layer="21"/>
<wire x1="-2.159" y1="0" x2="-2.159" y2="0.041" width="0.127" layer="21"/>
<wire x1="-2.159" y1="0.041" x2="-2.159" y2="2.2" width="0.127" layer="21"/>
<wire x1="2.159" y1="0" x2="2.159" y2="0.041" width="0.127" layer="21"/>
<wire x1="2.159" y1="0.041" x2="2.159" y2="2.2" width="0.127" layer="21"/>
<wire x1="-2.159" y1="-2.159" x2="-2.159" y2="0.041" width="0.127" layer="21"/>
<wire x1="2.159" y1="-2.159" x2="2.159" y2="0.041" width="0.127" layer="21"/>
<wire x1="0" y1="-2.159" x2="-0.041" y2="-2.159" width="0.127" layer="21"/>
<wire x1="-0.041" y1="-2.159" x2="-2.2" y2="-2.159" width="0.127" layer="21"/>
<wire x1="2.159" y1="-2.159" x2="-0.041" y2="-2.159" width="0.127" layer="21"/>
<text x="-2.667" y="4.064" size="1.27" layer="25">&gt;NAME</text>
<text x="-2.794" y="-5.207" size="1.27" layer="27">&gt;VALUE</text>
</package>
<package name="A314X_UA_RADIAL">
<pad name="GROUND" x="0" y="0" drill="0.8" shape="square"/>
<pad name="SUPPLY" x="-2.5" y="0" drill="0.8"/>
<pad name="OUTPUT" x="2.5" y="0" drill="0.8" shape="octagon"/>
<wire x1="-3.81" y1="0" x2="-2.54" y2="-1.27" width="0.127" layer="21"/>
<wire x1="-2.54" y1="-1.27" x2="2.54" y2="-1.27" width="0.127" layer="21"/>
<wire x1="2.54" y1="-1.27" x2="3.81" y2="0" width="0.127" layer="21"/>
<wire x1="3.81" y1="0" x2="-3.81" y2="0" width="0.127" layer="21"/>
<wire x1="-3.81" y1="0" x2="-3.81" y2="0.635" width="0.127" layer="21"/>
<wire x1="-3.81" y1="0.635" x2="-3.175" y2="1.27" width="0.127" layer="21"/>
<wire x1="-3.175" y1="1.27" x2="-1.27" y2="1.27" width="0.127" layer="21"/>
<wire x1="1.27" y1="1.27" x2="3.175" y2="1.27" width="0.127" layer="21"/>
<wire x1="3.175" y1="1.27" x2="3.81" y2="0.635" width="0.127" layer="21"/>
<wire x1="3.81" y1="0.635" x2="3.81" y2="0" width="0.127" layer="21"/>
<wire x1="-1.27" y1="1.27" x2="1.27" y2="1.27" width="0.254" layer="21"/>
</package>
<package name="SOT230P700X180-4N">
<smd name="1" x="-3.2766" y="2.3114" dx="1.4732" dy="0.889" layer="1"/>
<smd name="2" x="-3.2766" y="0" dx="1.4732" dy="0.889" layer="1"/>
<smd name="3" x="-3.2766" y="-2.3114" dx="1.4732" dy="0.889" layer="1"/>
<smd name="4" x="3.2766" y="0" dx="1.4732" dy="3.0988" layer="1"/>
<wire x1="1.8542" y1="-3.3528" x2="1.8542" y2="-1.5494" width="0.1524" layer="51"/>
<wire x1="1.8542" y1="1.5494" x2="1.8542" y2="3.3528" width="0.1524" layer="51"/>
<wire x1="-1.8542" y1="3.3528" x2="-1.8542" y2="2.7178" width="0.1524" layer="51"/>
<text x="-4.1148" y="2.3622" size="1.27" layer="51" ratio="6" rot="SR0">*</text>
<wire x1="-1.8542" y1="1.8796" x2="-1.8542" y2="0.4318" width="0.1524" layer="51"/>
<wire x1="-1.8542" y1="-0.4318" x2="-1.8542" y2="-1.8796" width="0.1524" layer="51"/>
<wire x1="-1.8542" y1="-2.7178" x2="-1.8542" y2="-3.3528" width="0.1524" layer="51"/>
<text x="-4.1148" y="2.3622" size="1.27" layer="21" ratio="6" rot="SR0">*</text>
<text x="-4.6228" y="4.3942" size="2.0828" layer="25" ratio="10" rot="SR0">&gt;NAME</text>
<text x="-5.588" y="-6.0452" size="2.0828" layer="27" ratio="10" rot="SR0">&gt;VALUE</text>
<wire x1="-1.8542" y1="1.8796" x2="-1.8542" y2="2.7178" width="0.1524" layer="51"/>
<wire x1="-1.8542" y1="2.7178" x2="-3.6576" y2="2.7178" width="0.1524" layer="51"/>
<wire x1="-3.6576" y1="2.7178" x2="-3.6576" y2="1.8796" width="0.1524" layer="51"/>
<wire x1="-3.6576" y1="1.8796" x2="-1.8542" y2="1.8796" width="0.1524" layer="51"/>
<wire x1="-1.8542" y1="-0.4318" x2="-1.8542" y2="0.4318" width="0.1524" layer="51"/>
<wire x1="-1.8542" y1="0.4318" x2="-3.6576" y2="0.4318" width="0.1524" layer="51"/>
<wire x1="-3.6576" y1="0.4318" x2="-3.6576" y2="-0.4318" width="0.1524" layer="51"/>
<wire x1="-3.6576" y1="-0.4318" x2="-1.8542" y2="-0.4318" width="0.1524" layer="51"/>
<wire x1="-1.8542" y1="-2.7178" x2="-1.8542" y2="-1.8796" width="0.1524" layer="51"/>
<wire x1="-1.8542" y1="-1.8796" x2="-3.6576" y2="-1.8796" width="0.1524" layer="51"/>
<wire x1="-3.6576" y1="-1.8796" x2="-3.6576" y2="-2.7178" width="0.1524" layer="51"/>
<wire x1="-3.6576" y1="-2.7178" x2="-1.8542" y2="-2.7178" width="0.1524" layer="51"/>
<wire x1="1.8542" y1="-1.5494" x2="3.6576" y2="-1.5494" width="0.1524" layer="51"/>
<wire x1="3.6576" y1="-1.5494" x2="3.6576" y2="1.5494" width="0.1524" layer="51"/>
<wire x1="3.6576" y1="1.5494" x2="1.8542" y2="1.5494" width="0.1524" layer="51"/>
<wire x1="-1.8542" y1="-3.3528" x2="1.8542" y2="-3.3528" width="0.1524" layer="51"/>
<wire x1="1.8542" y1="-1.5494" x2="1.8542" y2="1.5494" width="0.1524" layer="51"/>
<wire x1="1.8542" y1="3.3528" x2="-1.8542" y2="3.3528" width="0.1524" layer="51"/>
<wire x1="-1.8542" y1="2.7178" x2="-1.8542" y2="-2.7178" width="0.1524" layer="51"/>
<text x="-4.1148" y="2.3622" size="1.27" layer="51" ratio="6" rot="SR0">*</text>
<wire x1="-1.8542" y1="-3.3528" x2="1.8542" y2="-3.3528" width="0.1524" layer="21"/>
<wire x1="1.8542" y1="-3.3528" x2="1.8542" y2="3.3528" width="0.1524" layer="21"/>
<wire x1="1.8542" y1="3.3528" x2="-1.8542" y2="3.3528" width="0.1524" layer="21"/>
<wire x1="-1.8542" y1="3.3528" x2="-1.8542" y2="-3.3528" width="0.1524" layer="21"/>
<text x="-4.1148" y="2.3622" size="1.27" layer="21" ratio="6" rot="SR0">*</text>
<text x="-4.6228" y="4.3942" size="2.0828" layer="25" ratio="10" rot="SR0">&gt;NAME</text>
<text x="-5.588" y="-6.0452" size="2.0828" layer="27" ratio="10" rot="SR0">&gt;VALUE</text>
</package>
<package name="LEVIN_V_CONVERTER">
<wire x1="-46.736" y1="21.971" x2="-43.18" y2="21.971" width="0.127" layer="21"/>
<wire x1="-43.18" y1="21.971" x2="-1.27" y2="21.971" width="0.127" layer="21"/>
<wire x1="-1.27" y1="21.971" x2="1.27" y2="21.971" width="0.127" layer="21"/>
<wire x1="1.27" y1="-1.27" x2="1.27" y2="1.27" width="0.127" layer="21"/>
<wire x1="1.27" y1="1.27" x2="1.27" y2="17.78" width="0.127" layer="21"/>
<wire x1="1.27" y1="17.78" x2="1.27" y2="21.971" width="0.127" layer="21"/>
<wire x1="-46.736" y1="-1.27" x2="-43.18" y2="-1.27" width="0.127" layer="21"/>
<pad name="IN+" x="-45.212" y="20.066" drill="1.016" shape="octagon"/>
<pad name="IN-" x="-45.212" y="0" drill="1.016" shape="square"/>
<pad name="OUT-" x="0" y="0" drill="1.016" shape="square"/>
<pad name="OUT+" x="0" y="20.066" drill="1.016" shape="octagon"/>
<wire x1="-43.18" y1="-1.27" x2="-1.27" y2="-1.27" width="0.127" layer="21"/>
<wire x1="-1.27" y1="-1.27" x2="1.27" y2="-1.27" width="0.127" layer="21"/>
<wire x1="-46.736" y1="-1.27" x2="-46.736" y2="1.27" width="0.127" layer="21"/>
<wire x1="-46.736" y1="1.27" x2="-46.736" y2="17.78" width="0.127" layer="21"/>
<wire x1="-46.736" y1="17.78" x2="-46.736" y2="21.971" width="0.127" layer="21"/>
<wire x1="-46.736" y1="17.78" x2="-43.18" y2="17.78" width="0.127" layer="21"/>
<wire x1="-43.18" y1="17.78" x2="-43.18" y2="21.971" width="0.127" layer="21"/>
<wire x1="-46.736" y1="1.27" x2="-43.18" y2="1.27" width="0.127" layer="21"/>
<wire x1="-43.18" y1="1.27" x2="-43.18" y2="-1.27" width="0.127" layer="21"/>
<wire x1="-1.27" y1="-1.27" x2="-1.27" y2="1.27" width="0.127" layer="21"/>
<wire x1="-1.27" y1="1.27" x2="1.27" y2="1.27" width="0.127" layer="21"/>
<wire x1="-1.27" y1="21.971" x2="-1.27" y2="17.78" width="0.127" layer="21"/>
<wire x1="-1.27" y1="17.78" x2="1.27" y2="17.78" width="0.127" layer="21"/>
<pad name="5" x="-38.608" y="18.796" drill="3.048" diameter="5.08"/>
<pad name="6" x="-6.35" y="1.905" drill="3.048" diameter="5.08"/>
<text x="-45.085" y="15.875" size="1.27" layer="21">IN+</text>
<text x="-45.085" y="1.905" size="1.27" layer="21">IN-</text>
<text x="1.27" y="3.175" size="1.27" layer="21" rot="R180">OUT-</text>
<text x="-1.27" y="19.685" size="1.27" layer="21" rot="R180">OUT+</text>
<text x="-45.72" y="22.225" size="1.27" layer="25">&gt;NAME</text>
<text x="1.27" y="23.495" size="1.27" layer="27" rot="R180">&gt;VALUE</text>
</package>
<package name="POLOLU_POWER_SWITCH">
<pad name="GND_B" x="0" y="0" drill="1.016" shape="square"/>
<pad name="GND_C" x="0" y="7.62" drill="1.016" shape="square"/>
<pad name="GND_D" x="-2.54" y="7.62" drill="1.016" shape="square"/>
<pad name="GND_A" x="-2.54" y="0" drill="1.016" shape="square"/>
<pad name="VIN_A" x="-20.32" y="0" drill="1.016" shape="octagon"/>
<pad name="VIN_B" x="-17.78" y="0" drill="1.016" shape="octagon"/>
<pad name="VOUT_A" x="-20.32" y="7.62" drill="1.016" shape="octagon"/>
<pad name="VOUT_B" x="-17.78" y="7.62" drill="1.016" shape="octagon"/>
<pad name="TOG1" x="-6.5" y="4.572" drill="1.016"/>
<pad name="OFF" x="-5.08" y="7.62" drill="1.016"/>
<wire x1="1.27" y1="-1.27" x2="-3.81" y2="-1.27" width="0.127" layer="21"/>
<wire x1="-3.81" y1="-1.27" x2="-16.51" y2="-1.27" width="0.127" layer="21"/>
<wire x1="-16.51" y1="-1.27" x2="-21.59" y2="-1.27" width="0.127" layer="21"/>
<wire x1="-21.59" y1="-1.27" x2="-21.59" y2="8.89" width="0.127" layer="21"/>
<wire x1="-21.59" y1="8.89" x2="-16.51" y2="8.89" width="0.127" layer="21"/>
<wire x1="-16.51" y1="8.89" x2="-3.81" y2="8.89" width="0.127" layer="21"/>
<wire x1="-3.81" y1="8.89" x2="1.27" y2="8.89" width="0.127" layer="21"/>
<wire x1="1.27" y1="8.89" x2="1.27" y2="5.715" width="0.127" layer="21"/>
<text x="-21.59" y="9.525" size="1.27" layer="25">&gt;NAME</text>
<text x="-21.59" y="-3.175" size="1.27" layer="27">&gt;VALUE</text>
<text x="-20.955" y="5.715" size="0.762" layer="21">Vout</text>
<text x="-20.955" y="1.27" size="0.762" layer="21">Vin</text>
<text x="-5.08" y="4.445" size="0.762" layer="21">Toggle</text>
<text x="-7.62" y="7.62" size="0.762" layer="21">Off</text>
<text x="-1.27" y="1.905" size="1.524" layer="21" align="center">GND</text>
<wire x1="1.27" y1="5.715" x2="1.27" y2="3.175" width="0.127" layer="21"/>
<wire x1="1.27" y1="3.175" x2="1.27" y2="-1.27" width="0.127" layer="21"/>
<wire x1="-16.51" y1="6.35" x2="-16.51" y2="8.89" width="0.127" layer="21"/>
<wire x1="-16.51" y1="-1.27" x2="-16.51" y2="1.27" width="0.127" layer="21"/>
<wire x1="-16.51" y1="1.27" x2="-19.05" y2="1.27" width="0.127" layer="21"/>
<wire x1="-16.51" y1="6.35" x2="-17.78" y2="6.35" width="0.127" layer="21"/>
<pad name="TOG2" x="0" y="4.572" drill="1.016"/>
<wire x1="1.27" y1="5.715" x2="-3.81" y2="5.715" width="0.127" layer="21"/>
<wire x1="-3.81" y1="5.715" x2="-7.62" y2="5.715" width="0.127" layer="21"/>
<wire x1="-7.62" y1="5.715" x2="-7.62" y2="3.175" width="0.127" layer="21"/>
<wire x1="1.27" y1="3.175" x2="-3.81" y2="3.175" width="0.127" layer="21"/>
<wire x1="-3.81" y1="3.175" x2="-7.62" y2="3.175" width="0.127" layer="21"/>
<wire x1="-3.81" y1="3.175" x2="-3.81" y2="-1.27" width="0.127" layer="21"/>
<wire x1="-3.81" y1="8.89" x2="-3.81" y2="5.715" width="0.127" layer="21"/>
<text x="-1.27" y="6.35" size="0.762" layer="21" align="center">GND</text>
</package>
<package name="ATLAS_EZO">
<pad name="VCC" x="-2.54" y="-8.89" drill="1.016" shape="octagon"/>
<pad name="PRB" x="0" y="-8.89" drill="1.016"/>
<pad name="PGND" x="2.54" y="-8.89" drill="1.016" shape="square"/>
<pad name="GND" x="-2.54" y="8.89" drill="1.016" shape="square"/>
<pad name="TX" x="0" y="8.89" drill="1.016"/>
<pad name="RX" x="2.54" y="8.89" drill="1.016"/>
<wire x1="6.858" y1="-10.16" x2="-6.858" y2="-10.16" width="0.127" layer="21"/>
<wire x1="-6.858" y1="-10.16" x2="-6.858" y2="10.16" width="0.127" layer="21"/>
<wire x1="-6.858" y1="10.16" x2="6.858" y2="10.16" width="0.127" layer="21"/>
<wire x1="6.858" y1="10.16" x2="6.858" y2="-10.16" width="0.127" layer="21"/>
<text x="-6.35" y="9.525" size="1.27" layer="25" rot="R270">&gt;NAME</text>
<text x="6.35" y="-9.525" size="1.27" layer="27" rot="R90">&gt;VALUE</text>
<text x="-2.54" y="-7.62" size="0.762" layer="21" rot="R90" align="center-left">Vcc</text>
<text x="0" y="-7.62" size="0.762" layer="21" rot="R90" align="center-left">PRB</text>
<text x="2.54" y="-7.62" size="0.762" layer="21" rot="R90" align="center-left">PGND</text>
<text x="-2.54" y="7.62" size="0.762" layer="21" rot="R270" align="center-left">GND</text>
<text x="0" y="7.62" size="0.762" layer="21" rot="R270" align="center-left">TX</text>
<text x="2.54" y="7.62" size="0.762" layer="21" rot="R270" align="center-left">RX</text>
</package>
</packages>
<symbols>
<symbol name="MIC2981">
<wire x1="-12.7" y1="22.86" x2="-12.7" y2="-22.86" width="0.254" layer="94"/>
<wire x1="-12.7" y1="-22.86" x2="12.7" y2="-22.86" width="0.254" layer="94"/>
<wire x1="12.7" y1="-22.86" x2="12.7" y2="22.86" width="0.254" layer="94"/>
<wire x1="12.7" y1="22.86" x2="-12.7" y2="22.86" width="0.254" layer="94"/>
<pin name="IN1" x="-15.24" y="20.32" visible="pin" length="middle"/>
<pin name="IN2" x="-15.24" y="15.24" visible="pin" length="middle"/>
<pin name="IN3" x="-15.24" y="10.16" visible="pin" length="middle"/>
<pin name="IN4" x="-15.24" y="5.08" visible="pin" length="middle"/>
<pin name="IN5" x="-15.24" y="0" visible="pin" length="middle"/>
<pin name="IN6" x="-15.24" y="-5.08" visible="pin" length="middle"/>
<pin name="IN7" x="-15.24" y="-10.16" visible="pin" length="middle"/>
<pin name="IN8" x="-15.24" y="-15.24" visible="pin" length="middle"/>
<pin name="VS" x="-15.24" y="-20.32" visible="pin" length="middle"/>
<pin name="OUT1" x="15.24" y="20.32" visible="pin" length="middle" rot="R180"/>
<pin name="OUT2" x="15.24" y="15.24" visible="pin" length="middle" rot="R180"/>
<pin name="OUT3" x="15.24" y="10.16" visible="pin" length="middle" rot="R180"/>
<pin name="OUT4" x="15.24" y="5.08" visible="pin" length="middle" rot="R180"/>
<pin name="OUT5" x="15.24" y="0" visible="pin" length="middle" rot="R180"/>
<pin name="OUT6" x="15.24" y="-5.08" visible="pin" length="middle" rot="R180"/>
<pin name="OUT7" x="15.24" y="-10.16" visible="pin" length="middle" rot="R180"/>
<pin name="OUT8" x="15.24" y="-15.24" visible="pin" length="middle" rot="R180"/>
<pin name="GND" x="15.24" y="-20.32" visible="pin" length="middle" rot="R180"/>
</symbol>
<symbol name="BU-BNC">
<wire x1="-2.54" y1="2.54" x2="-2.54" y2="-2.54" width="0.254" layer="94" curve="-180" cap="flat"/>
<wire x1="0" y1="-2.54" x2="-0.762" y2="-1.778" width="0.254" layer="94"/>
<wire x1="0" y1="0" x2="-0.508" y2="0" width="0.1524" layer="94"/>
<wire x1="-2.54" y1="0.254" x2="-0.762" y2="0.254" width="0.254" layer="94"/>
<wire x1="-0.762" y1="0.254" x2="-0.508" y2="0" width="0.254" layer="94"/>
<wire x1="-0.508" y1="0" x2="-0.762" y2="-0.254" width="0.254" layer="94"/>
<wire x1="-0.762" y1="-0.254" x2="-2.54" y2="-0.254" width="0.254" layer="94"/>
<text x="-2.54" y="-5.08" size="1.778" layer="96">&gt;VALUE</text>
<text x="-2.54" y="3.302" size="1.778" layer="95">&gt;NAME</text>
<pin name="1" x="2.54" y="0" visible="off" length="short" direction="pas" rot="R180"/>
<pin name="GND" x="2.54" y="-2.54" visible="off" length="short" direction="pwr" rot="R180"/>
</symbol>
<symbol name="MS5803">
<pin name="SDO" x="-15.24" y="-2.54" length="middle"/>
<pin name="SDI/SDA" x="-15.24" y="0" length="middle"/>
<pin name="PS" x="-15.24" y="2.54" length="middle"/>
<pin name="SCLK" x="15.24" y="-2.54" length="middle" rot="R180"/>
<pin name="GND" x="15.24" y="0" length="middle" rot="R180"/>
<pin name="CSB" x="15.24" y="2.54" length="middle" rot="R180"/>
<wire x1="-10.16" y1="7.62" x2="-10.16" y2="-5.08" width="0.254" layer="94"/>
<wire x1="-10.16" y1="-5.08" x2="10.16" y2="-5.08" width="0.254" layer="94"/>
<wire x1="10.16" y1="-5.08" x2="10.16" y2="7.62" width="0.254" layer="94"/>
<wire x1="10.16" y1="7.62" x2="-10.16" y2="7.62" width="0.254" layer="94"/>
<pin name="VDD" x="-15.24" y="5.08" length="middle"/>
<text x="-9.906" y="8.636" size="1.27" layer="95">&gt;NAME</text>
</symbol>
<symbol name="P-MOS">
<wire x1="0" y1="0" x2="-1.016" y2="0.381" width="0.1524" layer="94"/>
<wire x1="-1.016" y1="0.381" x2="-1.016" y2="-0.381" width="0.1524" layer="94"/>
<wire x1="-1.016" y1="-0.381" x2="0" y2="0" width="0.1524" layer="94"/>
<wire x1="0" y1="0" x2="0" y2="2.032" width="0.1524" layer="94"/>
<wire x1="0" y1="2.032" x2="0" y2="2.794" width="0.1524" layer="94"/>
<wire x1="-1.524" y1="0" x2="-0.508" y2="0" width="0.1524" layer="94"/>
<wire x1="-0.508" y1="0" x2="-0.381" y2="0" width="0.1524" layer="94"/>
<wire x1="-0.381" y1="0" x2="0" y2="0" width="0.1524" layer="94"/>
<wire x1="-2.54" y1="2.54" x2="-2.54" y2="-2.54" width="0.254" layer="94"/>
<wire x1="0" y1="-3.048" x2="1.27" y2="-3.048" width="0.1524" layer="94"/>
<wire x1="1.27" y1="-3.048" x2="1.27" y2="-0.254" width="0.1524" layer="94"/>
<wire x1="1.27" y1="-0.254" x2="1.27" y2="0" width="0.1524" layer="94"/>
<wire x1="1.27" y1="0" x2="1.27" y2="2.794" width="0.1524" layer="94"/>
<wire x1="1.27" y1="2.794" x2="0" y2="2.794" width="0.1524" layer="94"/>
<wire x1="0.762" y1="-0.762" x2="1.778" y2="-0.762" width="0.1524" layer="94"/>
<wire x1="1.778" y1="-0.762" x2="1.27" y2="0" width="0.1524" layer="94"/>
<wire x1="1.27" y1="0" x2="0.762" y2="-0.762" width="0.1524" layer="94"/>
<wire x1="0.762" y1="0" x2="1.778" y2="0" width="0.1524" layer="94"/>
<wire x1="-1.524" y1="-2.032" x2="0" y2="-2.032" width="0.1524" layer="94"/>
<wire x1="0" y1="-2.032" x2="0" y2="-2.54" width="0.1524" layer="94"/>
<wire x1="-1.524" y1="2.032" x2="0" y2="2.032" width="0.1524" layer="94"/>
<wire x1="-0.381" y1="0" x2="-0.889" y2="-0.127" width="0.254" layer="94"/>
<wire x1="-0.889" y1="-0.127" x2="-0.889" y2="0.127" width="0.254" layer="94"/>
<wire x1="-0.889" y1="0.127" x2="-0.508" y2="0" width="0.254" layer="94"/>
<wire x1="1.016" y1="-0.635" x2="1.524" y2="-0.635" width="0.254" layer="94"/>
<wire x1="1.524" y1="-0.635" x2="1.27" y2="-0.254" width="0.254" layer="94"/>
<wire x1="1.27" y1="-0.254" x2="1.016" y2="-0.635" width="0.254" layer="94"/>
<circle x="0" y="2.794" radius="0.3592" width="0" layer="94"/>
<circle x="0" y="2.032" radius="0.3592" width="0" layer="94"/>
<circle x="0" y="-3.048" radius="0.3592" width="0" layer="94"/>
<text x="2.54" y="0" size="1.778" layer="95">&gt;NAME</text>
<text x="2.54" y="-2.54" size="1.778" layer="96">&gt;VALUE</text>
<rectangle x1="-2.032" y1="-2.54" x2="-1.524" y2="-1.27" layer="94"/>
<rectangle x1="-2.032" y1="1.27" x2="-1.524" y2="2.54" layer="94"/>
<rectangle x1="-2.032" y1="-0.762" x2="-1.524" y2="0.762" layer="94"/>
<pin name="G" x="-5.08" y="2.54" visible="off" length="short" direction="pas"/>
<pin name="D" x="0" y="-5.08" visible="off" length="short" direction="pas" rot="R90"/>
<pin name="S" x="0" y="5.08" visible="off" length="short" direction="pas" rot="R270"/>
</symbol>
<symbol name="SCHA5B0200">
<wire x1="-12.7" y1="-17.78" x2="12.7" y2="-17.78" width="0.254" layer="94"/>
<wire x1="12.7" y1="-17.78" x2="12.7" y2="20.32" width="0.254" layer="94"/>
<wire x1="12.7" y1="20.32" x2="-12.7" y2="20.32" width="0.254" layer="94"/>
<wire x1="-12.7" y1="20.32" x2="-12.7" y2="-17.78" width="0.254" layer="94"/>
<pin name="DAT2" x="-15.24" y="2.54" visible="pin" length="middle"/>
<pin name="DAT3/CD" x="-15.24" y="-2.54" visible="pin" length="middle"/>
<pin name="CMD" x="-15.24" y="-7.62" visible="pin" length="middle"/>
<pin name="VDD" x="-15.24" y="-12.7" visible="pin" length="middle"/>
<pin name="CLK" x="15.24" y="-12.7" visible="pin" length="middle" rot="R180"/>
<pin name="VSS" x="15.24" y="-7.62" visible="pin" length="middle" rot="R180"/>
<pin name="DAT0" x="15.24" y="-2.54" visible="pin" length="middle" rot="R180"/>
<pin name="DAT1" x="15.24" y="2.54" visible="pin" length="middle" rot="R180"/>
<pin name="CD" x="-7.62" y="22.86" visible="pin" length="middle" rot="R270"/>
<pin name="COMMON" x="2.54" y="22.86" visible="pin" length="middle" rot="R270"/>
</symbol>
<symbol name="NOKIA5110">
<pin name="GND" x="-2.54" y="-17.78" length="middle"/>
<pin name="BL" x="-2.54" y="-12.7" length="middle"/>
<pin name="VCC" x="-2.54" y="-7.62" length="middle"/>
<pin name="CLK" x="-2.54" y="-2.54" length="middle"/>
<pin name="DIN" x="-2.54" y="2.54" length="middle"/>
<pin name="DC" x="-2.54" y="7.62" length="middle"/>
<pin name="CE" x="-2.54" y="12.7" length="middle"/>
<pin name="RST" x="-2.54" y="17.78" length="middle"/>
<wire x1="0" y1="22.86" x2="0" y2="-22.86" width="0.254" layer="94"/>
<wire x1="0" y1="-22.86" x2="20.32" y2="-22.86" width="0.254" layer="94"/>
<wire x1="20.32" y1="-22.86" x2="20.32" y2="22.86" width="0.254" layer="94"/>
<wire x1="20.32" y1="22.86" x2="0" y2="22.86" width="0.254" layer="94"/>
</symbol>
<symbol name="HT9170D-18SOPLF">
<pin name="VDD" x="-17.78" y="10.16" length="middle" direction="pwr"/>
<pin name="INH" x="-17.78" y="5.08" length="middle" direction="in"/>
<pin name="VREF" x="-17.78" y="2.54" length="middle" direction="in"/>
<pin name="PWDN" x="-17.78" y="0" length="middle" direction="in"/>
<pin name="X1" x="-17.78" y="-2.54" length="middle" direction="in"/>
<pin name="OE" x="-17.78" y="-5.08" length="middle" direction="in"/>
<pin name="VP" x="-17.78" y="-10.16" length="middle" direction="in"/>
<pin name="VN" x="-17.78" y="-12.7" length="middle" direction="in"/>
<pin name="VSS" x="-17.78" y="-17.78" length="middle" direction="pwr"/>
<pin name="D0" x="17.78" y="10.16" length="middle" direction="out" rot="R180"/>
<pin name="D1" x="17.78" y="7.62" length="middle" direction="out" rot="R180"/>
<pin name="D2" x="17.78" y="5.08" length="middle" direction="out" rot="R180"/>
<pin name="D3" x="17.78" y="2.54" length="middle" direction="out" rot="R180"/>
<pin name="DV" x="17.78" y="-2.54" length="middle" direction="out" rot="R180"/>
<pin name="EST" x="17.78" y="-5.08" length="middle" direction="out" rot="R180"/>
<pin name="GS" x="17.78" y="-7.62" length="middle" direction="out" rot="R180"/>
<pin name="X2" x="17.78" y="-10.16" length="middle" direction="out" rot="R180"/>
<pin name="RT/GT" x="17.78" y="-12.7" length="middle" rot="R180"/>
<wire x1="-12.7" y1="15.24" x2="-12.7" y2="-22.86" width="0.4064" layer="94"/>
<wire x1="-12.7" y1="-22.86" x2="12.7" y2="-22.86" width="0.4064" layer="94"/>
<wire x1="12.7" y1="-22.86" x2="12.7" y2="15.24" width="0.4064" layer="94"/>
<wire x1="12.7" y1="15.24" x2="-12.7" y2="15.24" width="0.4064" layer="94"/>
<text x="-4.9022" y="18.0594" size="2.0828" layer="95" ratio="10" rot="SR0">&gt;NAME</text>
<text x="-4.5974" y="-27.2796" size="2.0828" layer="96" ratio="10" rot="SR0">&gt;VALUE</text>
</symbol>
<symbol name="LM22673TJ-ADJ">
<pin name="SW" x="0" y="0" direction="pwr"/>
<pin name="VIN" x="0" y="-2.54" direction="pwr"/>
<pin name="BOOT" x="0" y="-5.08" direction="pas"/>
<pin name="GND" x="0" y="-7.62" direction="pwr"/>
<pin name="IADJ" x="60.96" y="-7.62" direction="in" rot="R180"/>
<pin name="FB" x="60.96" y="-5.08" direction="in" rot="R180"/>
<pin name="SS" x="60.96" y="-2.54" direction="in" rot="R180"/>
<pin name="DAP" x="60.96" y="0" direction="pwr" rot="R180"/>
<wire x1="7.62" y1="5.08" x2="7.62" y2="-12.7" width="0.1524" layer="94"/>
<wire x1="7.62" y1="-12.7" x2="53.34" y2="-12.7" width="0.1524" layer="94"/>
<wire x1="53.34" y1="-12.7" x2="53.34" y2="5.08" width="0.1524" layer="94"/>
<wire x1="53.34" y1="5.08" x2="7.62" y2="5.08" width="0.1524" layer="94"/>
<text x="25.7556" y="9.1186" size="2.0828" layer="95" ratio="6" rot="SR0">&gt;NAME</text>
<text x="24.8158" y="6.5786" size="2.0828" layer="96" ratio="6" rot="SR0">&gt;VALUE</text>
</symbol>
<symbol name="TE_SMA_STRAIGHT">
<pin name="CENTER_PIN" x="0" y="2.54" length="short" rot="R270"/>
<pin name="LEG2" x="2.54" y="2.54" length="point" rot="R180"/>
<pin name="LEG1" x="-2.54" y="2.54" length="point" rot="R270"/>
<pin name="LEG4" x="-2.54" y="-2.54" length="point"/>
<pin name="LEG3" x="2.54" y="-2.54" length="point" rot="R90"/>
<text x="-2.54" y="-5.08" size="1.27" layer="95">&gt;NAME</text>
<text x="-2.54" y="-7.62" size="1.27" layer="96">&gt;VALUE</text>
<wire x1="2.794" y1="-2.794" x2="2.794" y2="-2.286" width="0.254" layer="94"/>
<wire x1="2.794" y1="-2.286" x2="2.286" y2="-2.286" width="0.254" layer="94"/>
<wire x1="2.286" y1="-2.286" x2="2.286" y2="-2.794" width="0.254" layer="94"/>
<wire x1="2.286" y1="-2.794" x2="2.794" y2="-2.794" width="0.254" layer="94"/>
<wire x1="-2.286" y1="2.286" x2="-2.286" y2="2.794" width="0.254" layer="94"/>
<wire x1="-2.286" y1="2.794" x2="-2.794" y2="2.794" width="0.254" layer="94"/>
<wire x1="-2.794" y1="2.794" x2="-2.794" y2="2.286" width="0.254" layer="94"/>
<wire x1="-2.794" y1="2.286" x2="-2.286" y2="2.286" width="0.254" layer="94"/>
<wire x1="2.794" y1="2.286" x2="2.794" y2="2.794" width="0.254" layer="94"/>
<wire x1="2.794" y1="2.794" x2="2.286" y2="2.794" width="0.254" layer="94"/>
<wire x1="2.286" y1="2.794" x2="2.286" y2="2.286" width="0.254" layer="94"/>
<wire x1="2.286" y1="2.286" x2="2.794" y2="2.286" width="0.254" layer="94"/>
<wire x1="-2.286" y1="-2.794" x2="-2.286" y2="-2.286" width="0.254" layer="94"/>
<wire x1="-2.286" y1="-2.286" x2="-2.794" y2="-2.286" width="0.254" layer="94"/>
<wire x1="-2.794" y1="-2.286" x2="-2.794" y2="-2.794" width="0.254" layer="94"/>
<wire x1="-2.794" y1="-2.794" x2="-2.286" y2="-2.794" width="0.254" layer="94"/>
</symbol>
<symbol name="ALLEGRO_314X_HALL">
<pin name="SUPPLY" x="-2.54" y="-5.08" length="short" direction="pwr" rot="R90"/>
<pin name="GROUND" x="0" y="-5.08" length="short" direction="pwr" rot="R90"/>
<pin name="OUTPUT" x="2.54" y="-5.08" length="short" rot="R90"/>
<wire x1="-5.08" y1="10.16" x2="-5.08" y2="-2.54" width="0.254" layer="94"/>
<wire x1="-5.08" y1="-2.54" x2="5.08" y2="-2.54" width="0.254" layer="94"/>
<wire x1="5.08" y1="-2.54" x2="5.08" y2="10.16" width="0.254" layer="94"/>
<wire x1="5.08" y1="10.16" x2="-5.08" y2="10.16" width="0.254" layer="94"/>
</symbol>
<symbol name="NZT751">
<pin name="E" x="0" y="-10.16" length="middle" direction="pas" rot="R90"/>
<pin name="B" x="-10.16" y="0" length="short" direction="pas"/>
<pin name="C_2" x="-2.54" y="10.16" length="middle" direction="pas" rot="R270"/>
<pin name="C" x="2.54" y="10.16" length="middle" direction="pas" rot="R270"/>
<text x="10.0838" y="-7.6708" size="2.0828" layer="95" ratio="10" rot="SR90">&gt;NAME</text>
<text x="12.573" y="-7.6708" size="2.0828" layer="96" ratio="10" rot="SR90">&gt;VALUE</text>
<circle x="0" y="0" radius="7.62" width="0.254" layer="94"/>
<wire x1="-2.54" y1="2.54" x2="-2.54" y2="1.27" width="0.254" layer="94"/>
<wire x1="-2.54" y1="1.27" x2="-2.54" y2="0" width="0.254" layer="94"/>
<wire x1="-2.54" y1="0" x2="-2.54" y2="-1.016" width="0.254" layer="94"/>
<wire x1="-2.54" y1="-1.016" x2="-2.54" y2="-2.54" width="0.254" layer="94"/>
<wire x1="0" y1="-5.08" x2="0" y2="-2.54" width="0.254" layer="94"/>
<wire x1="2.54" y1="5.08" x2="0" y2="5.08" width="0.254" layer="94"/>
<wire x1="0" y1="5.08" x2="-2.54" y2="5.08" width="0.254" layer="94"/>
<wire x1="0" y1="5.08" x2="0" y2="2.54" width="0.254" layer="94"/>
<wire x1="0" y1="2.54" x2="-2.54" y2="1.27" width="0.254" layer="94"/>
<wire x1="-7.62" y1="0" x2="-2.54" y2="0" width="0.254" layer="94"/>
<wire x1="-2.54" y1="-1.016" x2="0" y2="-2.54" width="0.254" layer="94"/>
<wire x1="-2.54" y1="1.27" x2="-2.032" y2="2.286" width="0.254" layer="94"/>
<wire x1="-2.032" y1="2.286" x2="-1.524" y2="1.016" width="0.254" layer="94"/>
<wire x1="-1.524" y1="1.016" x2="-2.54" y2="1.27" width="0.254" layer="94"/>
</symbol>
<symbol name="BCP56">
<pin name="E" x="0" y="-10.16" length="middle" direction="pas" rot="R90"/>
<pin name="B" x="-10.16" y="0" length="middle" direction="pas"/>
<pin name="C_2" x="2.54" y="10.16" length="middle" direction="pas" rot="R270"/>
<pin name="C" x="-2.54" y="10.16" length="middle" direction="pas" rot="R270"/>
<text x="10.0838" y="-6.4008" size="2.0828" layer="95" ratio="10" rot="SR90">&gt;NAME</text>
<text x="12.827" y="-6.4008" size="2.0828" layer="96" ratio="10" rot="SR90">&gt;VALUE</text>
<circle x="0" y="0" radius="7.62" width="0.254" layer="94"/>
<wire x1="-2.54" y1="2.54" x2="-2.54" y2="1.524" width="0.254" layer="94"/>
<wire x1="-2.54" y1="1.524" x2="-2.54" y2="0" width="0.254" layer="94"/>
<wire x1="-2.54" y1="0" x2="-2.54" y2="-1.27" width="0.254" layer="94"/>
<wire x1="-2.54" y1="-1.27" x2="-2.54" y2="-2.54" width="0.254" layer="94"/>
<wire x1="-2.54" y1="5.08" x2="0" y2="5.08" width="0.254" layer="94"/>
<wire x1="2.54" y1="5.08" x2="0" y2="5.08" width="0.254" layer="94"/>
<wire x1="0" y1="5.08" x2="0" y2="2.54" width="0.254" layer="94"/>
<wire x1="0" y1="2.54" x2="-2.54" y2="1.524" width="0.254" layer="94"/>
<wire x1="0" y1="-2.54" x2="-2.54" y2="-1.27" width="0.254" layer="94"/>
<wire x1="-5.08" y1="0" x2="-2.54" y2="0" width="0.254" layer="94"/>
<wire x1="0" y1="-5.08" x2="0" y2="-2.54" width="0.254" layer="94"/>
<wire x1="0" y1="-2.54" x2="-0.254" y2="-1.778" width="0.254" layer="94"/>
<wire x1="-0.254" y1="-1.778" x2="-0.762" y2="-2.794" width="0.254" layer="94"/>
<wire x1="-0.762" y1="-2.794" x2="0" y2="-2.54" width="0.254" layer="94"/>
</symbol>
<symbol name="LEIVIN_V_CONVERTER">
<pin name="IN+" x="-15.24" y="12.7" length="middle" direction="pwr"/>
<pin name="IN-" x="-15.24" y="2.54" length="middle" direction="pwr"/>
<pin name="OUT+" x="30.48" y="12.7" length="middle" direction="pwr" rot="R180"/>
<pin name="OUT-" x="30.48" y="2.54" length="middle" direction="pwr" rot="R180"/>
<wire x1="-12.7" y1="0" x2="27.94" y2="0" width="0.254" layer="94"/>
<wire x1="27.94" y1="0" x2="27.94" y2="15.24" width="0.254" layer="94"/>
<wire x1="27.94" y1="15.24" x2="-12.7" y2="15.24" width="0.254" layer="94"/>
<wire x1="-12.7" y1="15.24" x2="-12.7" y2="0" width="0.254" layer="94"/>
<text x="-12.7" y="17.78" size="1.778" layer="95">NAME&gt;</text>
<text x="-12.7" y="-2.54" size="1.778" layer="96">VALUE&gt;</text>
</symbol>
<symbol name="POLOLU_POWER_SWITCH">
<pin name="VOUT_A" x="-2.54" y="15.24" length="short" direction="pwr" rot="R180"/>
<pin name="VOUT_B" x="-2.54" y="12.7" length="short" direction="pwr" rot="R180"/>
<pin name="VIN_A" x="-27.94" y="15.24" length="short" direction="pwr"/>
<pin name="VIN_B" x="-27.94" y="12.7" length="short" direction="pwr"/>
<pin name="GND_A" x="-27.94" y="-7.62" length="short" direction="pwr"/>
<pin name="GND_B" x="-27.94" y="-10.16" length="short" direction="pwr"/>
<pin name="GND_C" x="-2.54" y="-7.62" length="short" direction="pwr" rot="R180"/>
<pin name="GND_D" x="-2.54" y="-10.16" length="short" direction="pwr" rot="R180"/>
<pin name="TOG1" x="-2.54" y="0" length="middle" rot="R180"/>
<wire x1="-5.08" y1="17.78" x2="-25.4" y2="17.78" width="0.254" layer="94"/>
<wire x1="-25.4" y1="17.78" x2="-25.4" y2="-12.7" width="0.254" layer="94"/>
<wire x1="-25.4" y1="-12.7" x2="-5.08" y2="-12.7" width="0.254" layer="94"/>
<wire x1="-5.08" y1="-12.7" x2="-5.08" y2="17.78" width="0.254" layer="94"/>
<text x="-25.4" y="18.288" size="1.778" layer="95">NAME&gt;</text>
<text x="-25.4" y="-15.24" size="1.778" layer="96">VALUE&gt;</text>
<pin name="OFF" x="-2.54" y="-5.08" length="middle" rot="R180"/>
<pin name="TOG2" x="-2.54" y="2.54" length="middle" rot="R180"/>
</symbol>
<symbol name="3M_N3431">
<pin name="P$1" x="-12.7" y="-12.7" length="middle"/>
<pin name="P$2" x="-15.24" y="-10.16"/>
<pin name="P$3" x="-12.7" y="-7.62" length="middle"/>
<pin name="P$4" x="-15.24" y="-5.08"/>
<pin name="P$5" x="-12.7" y="-2.54" length="middle"/>
<pin name="P$6" x="-15.24" y="0"/>
<pin name="P$7" x="-12.7" y="2.54" length="middle"/>
<pin name="P$8" x="-15.24" y="5.08"/>
<pin name="P$9" x="-12.7" y="7.62" length="middle"/>
<pin name="P$10" x="-15.24" y="10.16"/>
<pin name="P$11" x="-12.7" y="12.7" length="middle"/>
<pin name="P$12" x="-15.24" y="15.24"/>
<pin name="P$13" x="-12.7" y="17.78" length="middle"/>
<pin name="P$14" x="-15.24" y="20.32"/>
<pin name="P$15" x="-12.7" y="22.86" length="middle"/>
<pin name="P$16" x="-15.24" y="25.4"/>
<pin name="P$17" x="-12.7" y="27.94" length="middle"/>
<pin name="P$18" x="-15.24" y="30.48"/>
<pin name="P$19" x="-12.7" y="33.02" length="middle"/>
<pin name="P$20" x="-15.24" y="35.56"/>
<pin name="P$21" x="-12.7" y="38.1" length="middle"/>
<pin name="P$22" x="-15.24" y="40.64"/>
<pin name="P$23" x="-12.7" y="43.18" length="middle"/>
<pin name="P$24" x="-15.24" y="45.72"/>
<pin name="P$25" x="-12.7" y="48.26" length="middle"/>
<pin name="P$26" x="-15.24" y="50.8"/>
<pin name="P$27" x="-12.7" y="53.34" length="middle"/>
<pin name="P$28" x="-15.24" y="55.88"/>
<pin name="P$29" x="-12.7" y="58.42" length="middle"/>
<pin name="P$30" x="-15.24" y="60.96"/>
<pin name="P$31" x="-12.7" y="63.5" length="middle"/>
<pin name="P$32" x="-15.24" y="66.04"/>
<pin name="P$33" x="-12.7" y="68.58" length="middle"/>
<pin name="P$34" x="-15.24" y="71.12"/>
<wire x1="-10.16" y1="73.66" x2="-10.16" y2="-15.24" width="0.254" layer="94"/>
<wire x1="-10.16" y1="-15.24" x2="5.08" y2="-15.24" width="0.254" layer="94"/>
<wire x1="5.08" y1="-15.24" x2="5.08" y2="73.66" width="0.254" layer="94"/>
<wire x1="5.08" y1="73.66" x2="-10.16" y2="73.66" width="0.254" layer="94"/>
<text x="2.54" y="-12.7" size="1.27" layer="95" rot="R90">NAME&gt;</text>
<text x="2.54" y="71.12" size="1.27" layer="96" rot="R270" align="top-left">VALUE&gt;</text>
</symbol>
<symbol name="ATLAS_EZO">
<pin name="VCC" x="-12.7" y="2.54" length="short" direction="pwr"/>
<pin name="PRB" x="-12.7" y="0" length="short"/>
<pin name="PGND" x="-12.7" y="-2.54" length="short"/>
<pin name="GND" x="12.7" y="2.54" length="short" direction="pwr" rot="R180"/>
<pin name="TX" x="12.7" y="0" length="short" rot="R180"/>
<pin name="RX" x="12.7" y="-2.54" length="short" rot="R180"/>
<wire x1="-10.16" y1="5.08" x2="-10.16" y2="-5.08" width="0.254" layer="94"/>
<wire x1="-10.16" y1="-5.08" x2="10.16" y2="-5.08" width="0.254" layer="94"/>
<wire x1="10.16" y1="-5.08" x2="10.16" y2="5.08" width="0.254" layer="94"/>
<wire x1="10.16" y1="5.08" x2="-10.16" y2="5.08" width="0.254" layer="95"/>
<text x="-10.16" y="5.334" size="1.27" layer="95">&gt;NAME</text>
<text x="10.16" y="-5.334" size="1.27" layer="96" rot="R180">&gt;VALUE</text>
</symbol>
</symbols>
<devicesets>
<deviceset name="MIC2981">
<description>The MIC2981/82 is an 8-channel, high-voltage, high-current
source driver array ideal for switching high-power loads from
logic-level TTL, CMOS, or PMOS control signals.
These drivers can manage multiple loads of up to 50V and
500mA, limited only by package power dissipation.
Micrel’s MIC2981/82 features inputs compatible with 5V TTL
and 5V to 15V CMOS or PMOS logic outputs. Micrel’s
dual-marked device replaces either UDN2981 or UDN2982
devices.
The MIC2981/82 is available in the 18-pin plastic DIP and
18-lead wide SOP package. Both devices operate in the
industrial temperature range.</description>
<gates>
<gate name="G$1" symbol="MIC2981" x="0" y="0"/>
</gates>
<devices>
<device name="" package="DIP18">
<connects>
<connect gate="G$1" pin="GND" pad="GND"/>
<connect gate="G$1" pin="IN1" pad="IN1"/>
<connect gate="G$1" pin="IN2" pad="IN2"/>
<connect gate="G$1" pin="IN3" pad="IN3"/>
<connect gate="G$1" pin="IN4" pad="IN4"/>
<connect gate="G$1" pin="IN5" pad="IN5"/>
<connect gate="G$1" pin="IN6" pad="IN6"/>
<connect gate="G$1" pin="IN7" pad="IN7"/>
<connect gate="G$1" pin="IN8" pad="IN8"/>
<connect gate="G$1" pin="OUT1" pad="OUT1"/>
<connect gate="G$1" pin="OUT2" pad="OUT2"/>
<connect gate="G$1" pin="OUT3" pad="OUT3"/>
<connect gate="G$1" pin="OUT4" pad="OUT4"/>
<connect gate="G$1" pin="OUT5" pad="OUT5"/>
<connect gate="G$1" pin="OUT6" pad="OUT6"/>
<connect gate="G$1" pin="OUT7" pad="OUT7"/>
<connect gate="G$1" pin="OUT8" pad="OUT8"/>
<connect gate="G$1" pin="VS" pad="VS"/>
</connects>
<technologies>
<technology name=""/>
</technologies>
</device>
<device name="MIC2981_SOP18" package="SOP127P1064X265-18N">
<connects>
<connect gate="G$1" pin="GND" pad="10"/>
<connect gate="G$1" pin="IN1" pad="1"/>
<connect gate="G$1" pin="IN2" pad="2"/>
<connect gate="G$1" pin="IN3" pad="3"/>
<connect gate="G$1" pin="IN4" pad="4"/>
<connect gate="G$1" pin="IN5" pad="5"/>
<connect gate="G$1" pin="IN6" pad="6"/>
<connect gate="G$1" pin="IN7" pad="7"/>
<connect gate="G$1" pin="IN8" pad="8"/>
<connect gate="G$1" pin="OUT1" pad="18"/>
<connect gate="G$1" pin="OUT2" pad="17"/>
<connect gate="G$1" pin="OUT3" pad="16"/>
<connect gate="G$1" pin="OUT4" pad="15"/>
<connect gate="G$1" pin="OUT5" pad="14"/>
<connect gate="G$1" pin="OUT6" pad="13"/>
<connect gate="G$1" pin="OUT7" pad="12"/>
<connect gate="G$1" pin="OUT8" pad="11"/>
<connect gate="G$1" pin="VS" pad="9"/>
</connects>
<technologies>
<technology name=""/>
</technologies>
</device>
</devices>
</deviceset>
<deviceset name="BNC" prefix="X">
<description>&lt;H1&gt;SOCKET, BNC, INS, PCB, 75R, BLACK&lt;/H1&gt;
&lt;H2&gt;1-1634624-0, 1-1337543-0&lt;/h2&gt;
&lt;br&gt;&lt;b&gt;Parameters:&lt;/b&gt;&lt;br&gt;
  Connector Type: BNC Coaxial &lt;br&gt;
  Body Style: Right Angle Jack  &lt;br&gt;
  Coaxial Termination:Solder  &lt;br&gt;
  Impedance: 75ohm  &lt;br&gt;
  Contact Material: Brass  &lt;br&gt;
  Contact Plating: Gold  &lt;br&gt;
  Frequency Max: 2GHz  &lt;br&gt;
  Connector Mounting: PCB  &lt;br&gt;
  Body Plating: Nickel  &lt;br&gt;
  Colour: Black  &lt;br&gt;
  Connector Mounting Orientation: PC Board  &lt;br&gt;
  Contact Resistance: 1.5mohm  &lt;br&gt;
  Insulation Resistance: 5000Mohm  &lt;br&gt;
  Mounting Orientation: Vertical  &lt;br&gt;
  Mounting Type: PC Board  &lt;br&gt;
  No. of Mating Cycles: 50  &lt;br&gt;
  Operating Frequency Max: 2GHz  &lt;br&gt;
  Operating Temperature Max: +85°C  &lt;br&gt;
  Operating Temperature Min: -55°C  &lt;br&gt;
  Plug Body Material: Zinc  &lt;br&gt;
  Termination Method: Solder  &lt;br&gt;
  Withstand Voltage: 1500V  &lt;br&gt;
  Working Voltage: 500V &lt;br&gt;</description>
<gates>
<gate name="G$1" symbol="BU-BNC" x="0" y="0"/>
</gates>
<devices>
<device name="" package="AMP_227161">
<connects>
<connect gate="G$1" pin="1" pad="1"/>
<connect gate="G$1" pin="GND" pad="2"/>
</connects>
<technologies>
<technology name="-B">
<attribute name="MNP" value="1-1634624-0" constant="no"/>
<attribute name="OC_FARNELL" value="1020964" constant="no"/>
<attribute name="OC_NEWARK" value="" constant="no"/>
<attribute name="PACKAGE" value="" constant="no"/>
<attribute name="SUPPLIER" value="TE CONNECTIVITY" constant="no"/>
</technology>
<technology name="-W">
<attribute name="MNP" value="1-1337543-0" constant="no"/>
<attribute name="OC_FARNELL" value="1020955" constant="no"/>
<attribute name="SUPPLIER" value="TE CONNECTIVITY" constant="no"/>
</technology>
</technologies>
</device>
</devices>
</deviceset>
<deviceset name="MS5803">
<description>High resolution altimeter sensors from Measurement Specialties with 
SPI and I2C bus interface</description>
<gates>
<gate name="G$1" symbol="MS5803" x="0" y="0"/>
</gates>
<devices>
<device name="" package="MS5803">
<connects>
<connect gate="G$1" pin="CSB" pad="CSB"/>
<connect gate="G$1" pin="GND" pad="GND"/>
<connect gate="G$1" pin="PS" pad="PS"/>
<connect gate="G$1" pin="SCLK" pad="SCLK"/>
<connect gate="G$1" pin="SDI/SDA" pad="SDI/SDA"/>
<connect gate="G$1" pin="SDO" pad="SDO"/>
<connect gate="G$1" pin="VDD" pad="VDD"/>
</connects>
<technologies>
<technology name=""/>
</technologies>
</device>
</devices>
</deviceset>
<deviceset name="BSS138" prefix="Q">
<description>&lt;b&gt;P-CHANNEL MOS FET&lt;/b&gt;</description>
<gates>
<gate name="G$1" symbol="P-MOS" x="0" y="0"/>
</gates>
<devices>
<device name="" package="SOT23">
<connects>
<connect gate="G$1" pin="D" pad="3"/>
<connect gate="G$1" pin="G" pad="1"/>
<connect gate="G$1" pin="S" pad="2"/>
</connects>
<technologies>
<technology name=""/>
</technologies>
</device>
</devices>
</deviceset>
<deviceset name="SCHA5B0200" prefix="SD">
<description>Memory Card Connectors microSD Rev Mount Push-push w/Switch</description>
<gates>
<gate name="G$1" symbol="SCHA5B0200" x="-2.54" y="0"/>
</gates>
<devices>
<device name="" package="SCHA5B0200">
<connects>
<connect gate="G$1" pin="CD" pad="CD_SW"/>
<connect gate="G$1" pin="CLK" pad="CLK"/>
<connect gate="G$1" pin="CMD" pad="CMD"/>
<connect gate="G$1" pin="COMMON" pad="COMMON"/>
<connect gate="G$1" pin="DAT0" pad="DAT0"/>
<connect gate="G$1" pin="DAT1" pad="DAT1"/>
<connect gate="G$1" pin="DAT2" pad="DAT2"/>
<connect gate="G$1" pin="DAT3/CD" pad="DAT3/CD"/>
<connect gate="G$1" pin="VDD" pad="VDD"/>
<connect gate="G$1" pin="VSS" pad="VSS"/>
</connects>
<technologies>
<technology name="">
<attribute name="MANUF" value="ALPS"/>
<attribute name="PARTNUM" value="SCHA5B0200"/>
</technology>
</technologies>
</device>
</devices>
</deviceset>
<deviceset name="NOKIA5110">
<gates>
<gate name="G$1" symbol="NOKIA5110" x="-10.16" y="0"/>
</gates>
<devices>
<device name="" package="NOKIA5110">
<connects>
<connect gate="G$1" pin="BL" pad="BL"/>
<connect gate="G$1" pin="CE" pad="CE"/>
<connect gate="G$1" pin="CLK" pad="CLK"/>
<connect gate="G$1" pin="DC" pad="DC"/>
<connect gate="G$1" pin="DIN" pad="DIN"/>
<connect gate="G$1" pin="GND" pad="GND"/>
<connect gate="G$1" pin="RST" pad="RST"/>
<connect gate="G$1" pin="VCC" pad="VCC"/>
</connects>
<technologies>
<technology name=""/>
</technologies>
</device>
</devices>
</deviceset>
<deviceset name="HT9170D-18SOPLF" prefix="U">
<description>DTMF Receiver</description>
<gates>
<gate name="A" symbol="HT9170D-18SOPLF" x="0" y="0"/>
</gates>
<devices>
<device name="" package="SOP127P1064X265-18N">
<connects>
<connect gate="A" pin="D0" pad="11"/>
<connect gate="A" pin="D1" pad="12"/>
<connect gate="A" pin="D2" pad="13"/>
<connect gate="A" pin="D3" pad="14"/>
<connect gate="A" pin="DV" pad="15"/>
<connect gate="A" pin="EST" pad="16"/>
<connect gate="A" pin="GS" pad="3"/>
<connect gate="A" pin="INH" pad="5"/>
<connect gate="A" pin="OE" pad="10"/>
<connect gate="A" pin="PWDN" pad="6"/>
<connect gate="A" pin="RT/GT" pad="17"/>
<connect gate="A" pin="VDD" pad="18"/>
<connect gate="A" pin="VN" pad="2"/>
<connect gate="A" pin="VP" pad="1"/>
<connect gate="A" pin="VREF" pad="4"/>
<connect gate="A" pin="VSS" pad="9"/>
<connect gate="A" pin="X1" pad="7"/>
<connect gate="A" pin="X2" pad="8"/>
</connects>
<technologies>
<technology name="">
<attribute name="MPN" value="HT9170D-18SOPLF" constant="no"/>
<attribute name="OC_FARNELL" value="1420879" constant="no"/>
<attribute name="OC_NEWARK" value="53M7847" constant="no"/>
<attribute name="PACKAGE" value="SOP-18" constant="no"/>
<attribute name="SUPPLIER" value="HOLTEK" constant="no"/>
</technology>
</technologies>
</device>
</devices>
</deviceset>
<deviceset name="LM22673_NDR_7">
<gates>
<gate name="A" symbol="LM22673TJ-ADJ" x="0" y="0"/>
</gates>
<devices>
<device name="" package="TJ7A">
<connects>
<connect gate="A" pin="BOOT" pad="3"/>
<connect gate="A" pin="DAP" pad="8"/>
<connect gate="A" pin="FB" pad="6"/>
<connect gate="A" pin="GND" pad="4"/>
<connect gate="A" pin="IADJ" pad="5"/>
<connect gate="A" pin="SS" pad="7"/>
<connect gate="A" pin="SW" pad="1"/>
<connect gate="A" pin="VIN" pad="2"/>
</connects>
<technologies>
<technology name="">
<attribute name="MANUFACTURER_PART_NUMBER" value="lm22673tj-adjnopb" constant="no"/>
<attribute name="VENDOR" value="National" constant="no"/>
</technology>
</technologies>
</device>
</devices>
</deviceset>
<deviceset name="5-1814832-1">
<description>SMA&lt;BR&gt;
Jack&lt;br&gt;
Vertical&lt;br&gt;
50 Ohm&lt;br&gt;</description>
<gates>
<gate name="G$1" symbol="TE_SMA_STRAIGHT" x="0" y="0"/>
</gates>
<devices>
<device name="" package="TE_SMA_STRAIGHT">
<connects>
<connect gate="G$1" pin="CENTER_PIN" pad="CENTER_PIN"/>
<connect gate="G$1" pin="LEG1" pad="LEG1"/>
<connect gate="G$1" pin="LEG2" pad="LEG2"/>
<connect gate="G$1" pin="LEG3" pad="LEG3"/>
<connect gate="G$1" pin="LEG4" pad="LEG4"/>
</connects>
<technologies>
<technology name=""/>
</technologies>
</device>
</devices>
</deviceset>
<deviceset name="A314X">
<description>&lt;b&gt;SENSITIVE HALL-EFFECT SWITCHES FOR HIGH-TEMPERATURE OPERATION&lt;/b&gt;&lt;br&gt;
These Hall-effect switches are monolithic integrated circuits with tighter magnetic specifications, designed to operate continuously over extended temperatures to +150 ° C, and are more stable with both temperature and supply voltage changes.  The unipolar switching characteristic makes these devices ideal for use with a simple bar or rod magnet.  The four basic devices (3141, 3142, 3143, and 3144) are
identical except for magnetic switch points. Each device includes a voltage regulator for operation with supply voltages of 4.5 to 24 volts, reverse battery protection diode, quadratic Hall-voltage generator, temperature compensation circuitry, small-signal amplifier, Schmitt trigger, and an open-collector output to sink up to 25 mA.  With suitable output pull up, they can be used with bipolar or CMOS logic circuits.</description>
<gates>
<gate name="G$1" symbol="ALLEGRO_314X_HALL" x="0" y="0"/>
</gates>
<devices>
<device name="" package="A314X_UA_RADIAL">
<connects>
<connect gate="G$1" pin="GROUND" pad="GROUND"/>
<connect gate="G$1" pin="OUTPUT" pad="OUTPUT"/>
<connect gate="G$1" pin="SUPPLY" pad="SUPPLY"/>
</connects>
<technologies>
<technology name=""/>
</technologies>
</device>
</devices>
</deviceset>
<deviceset name="NZT751" prefix="Q">
<description>PNP Current Driver Transistor</description>
<gates>
<gate name="A" symbol="NZT751" x="0" y="0"/>
</gates>
<devices>
<device name="" package="SOT230P700X180-4N">
<connects>
<connect gate="A" pin="B" pad="1"/>
<connect gate="A" pin="C" pad="4"/>
<connect gate="A" pin="C_2" pad="2"/>
<connect gate="A" pin="E" pad="3"/>
</connects>
<technologies>
<technology name="">
<attribute name="MPN" value="NZT751" constant="no"/>
<attribute name="OC_FARNELL" value="9826718" constant="no"/>
<attribute name="OC_NEWARK" value="58K9489" constant="no"/>
<attribute name="PACKAGE" value="SOT-223-4" constant="no"/>
<attribute name="SUPPLIER" value="Fairchild" constant="no"/>
</technology>
</technologies>
</device>
</devices>
</deviceset>
<deviceset name="BCP56" prefix="Q">
<description>NPN Bipolar Transistor</description>
<gates>
<gate name="A" symbol="BCP56" x="0" y="0"/>
</gates>
<devices>
<device name="" package="SOT230P700X180-4N">
<connects>
<connect gate="A" pin="B" pad="1"/>
<connect gate="A" pin="C" pad="4"/>
<connect gate="A" pin="C_2" pad="2"/>
<connect gate="A" pin="E" pad="3"/>
</connects>
<technologies>
<technology name="">
<attribute name="MPN" value="BCP56" constant="no"/>
<attribute name="PACKAGE" value="SOT-223-4" constant="no"/>
</technology>
</technologies>
</device>
</devices>
</deviceset>
<deviceset name="LEVIN_V_CONVERTER">
<gates>
</gates>
<devices>
<device name="">
<technologies>
<technology name=""/>
</technologies>
</device>
</devices>
</deviceset>
<deviceset name="LEIVIN_V_CONVERTER">
<description>Switching Power supply. Comes in several boost, buck, or buck-boost variants based on various ICs including:&lt;BR&gt;
&lt;a href=http://www.feeling-tech.com.tw/km-master/ezcatfiles/cust/img/img/24/fp5139v12-lf.pdf"&gt;HF5139&lt;/a&gt; - 3A - 150 kHz - Boost Buck&lt;br&gt;
&lt;a href="http://www.ti.com/lit/ds/symlink/lm1577.pdf"&gt;LM2577&lt;/a&gt; - 2A - Buck -  20W&lt;br&gt;
&lt;a href="http://www.ti.com/lit/ds/symlink/lm2587.pdf"&gt;LM2587&lt;/a&gt; - 5A - 100 kHz - Flyback regulator&lt;/a&gt; - Boost&lt;br&gt;
&lt;a href="http://www.ti.com/lit/ds/symlink/lm2596.pdf"&gt;LM2596&lt;/a&gt; - 3A -150 KHz -  Buck - Constant Current &amp; Voltage&lt;br&gt;
&lt;a href="http://www.xlsemi.com/datasheet/XL4015%20datasheet.pdf"&gt; XL4015&lt;/a&gt; - 5A - 180 kHz - Buck&lt;br&gt;
&lt;a href="http://www.xlsemi.com/datasheet/XL6009%20datasheet.pdf"&gt; XL6009&lt;/a&gt; - 4A - 40 kHz - Buck Boost&lt;br&gt;</description>
<gates>
<gate name="A" symbol="LEIVIN_V_CONVERTER" x="-7.62" y="-7.62"/>
</gates>
<devices>
<device name="" package="LEVIN_V_CONVERTER">
<connects>
<connect gate="A" pin="IN+" pad="IN+"/>
<connect gate="A" pin="IN-" pad="IN-"/>
<connect gate="A" pin="OUT+" pad="OUT+"/>
<connect gate="A" pin="OUT-" pad="OUT-"/>
</connects>
<technologies>
<technology name=""/>
</technologies>
</device>
</devices>
</deviceset>
<deviceset name="POLOLU_POWER_SWITCH">
<description>The Pololu Pushbutton Power Switch is a compact, solid-state power switch controlled by a momentary pushbutton switch. Because the switched current does not flow through the mechanical switch, a large variety of small, low-power switches can be used to control a substantial amount of power.
The use of momentary pushbutton switches also allows multiple switches to be used in parallel to control the power to one load. The solid-state switch also allows the load to turn off its own power, which can be beneficial when used with battery chemistries sensitive to over-discharging. 
Please note that this switch has several drawbacks when compared to mechanical switches, so please be sure you fully understand this product before using it in your system.&lt;br&gt;
Benefits and Limitations&lt;br&gt;
The Pololu Pushbutton Power Switch works well in its intended application as a DC power switch for small robots, but because it is fundamentally different from a mechanical power switch, the benefits and drawbacks of the components must be fully considered.&lt;br&gt;
&lt;br&gt;
Benefits over mechanical switches:&lt;br&gt;
&lt;br&gt;
Compact size&lt;br&gt;
Allows multiple (parallel) switches for improved user interface&lt;br&gt;
Better turn-on characteristics than a bouncing mechanical switch&lt;br&gt;
Limited LC spikes for low-resistance loads&lt;br&gt;
Allows self-shutoff&lt;br&gt;
Breadboard and perfboard compatible&lt;br&gt;
Drawbacks compared to mechanical switches:&lt;br&gt;
&lt;br&gt;
Switch is one-directional (inherent body diode in MOSFET)&lt;br&gt;
Limited operating voltage range&lt;br&gt;
Switches DC only (does not maintain state through power disruptions or excessive noise)&lt;br&gt;
No complete isolation in off state&lt;br&gt;
Specifications&lt;br&gt;
Dimensions: 0.4" x 0.9" x 0.125" (without header pins and pushbutton installed)&lt;br&gt;
Operating voltage: 4.5-20 V (SV version), 2.5-7.0 V (LV version)&lt;br&gt;
Maximum current: 10 A (see MOSFET datasheets)&lt;br&gt;
Weight without included pushbutton: 0.030 oz (0.85 g)&lt;br&gt;
Weight with included pushbutton: 0.035 oz (1.0 g)&lt;br&gt;
Draws very little current in off state (typically under 0.01 μA)&lt;br&gt;</description>
<gates>
<gate name="A" symbol="POLOLU_POWER_SWITCH" x="5.08" y="12.7"/>
</gates>
<devices>
<device name="" package="POLOLU_POWER_SWITCH">
<connects>
<connect gate="A" pin="GND_A" pad="GND_A"/>
<connect gate="A" pin="GND_B" pad="GND_B"/>
<connect gate="A" pin="GND_C" pad="GND_C"/>
<connect gate="A" pin="GND_D" pad="GND_D"/>
<connect gate="A" pin="OFF" pad="OFF"/>
<connect gate="A" pin="TOG1" pad="TOG1"/>
<connect gate="A" pin="TOG2" pad="TOG2"/>
<connect gate="A" pin="VIN_A" pad="VIN_A"/>
<connect gate="A" pin="VIN_B" pad="VIN_B"/>
<connect gate="A" pin="VOUT_A" pad="VOUT_A"/>
<connect gate="A" pin="VOUT_B" pad="VOUT_B"/>
</connects>
<technologies>
<technology name=""/>
</technologies>
</device>
</devices>
</deviceset>
<deviceset name="3M_N3431">
<description>&lt;b&gt;ELECTRICAL:&lt;br&gt;&lt;/b&gt;
TEMPERATURE RATING: -55 C TO 105 C&lt;br&gt;
 PROCESS RATING: 260 C, PER J-STD-020C, SINGLE PASS&lt;br&gt;
MOISTURE SENSITIVITY LEVEL: 1 (PER J-STD-020C)&lt;br&gt;
 CURRENT RATING: 5.00A, 1 CONTACT POWERED&lt;br&gt;
 3.00A, 6 CONTACTS POWERED&lt;br&gt;
 1.75A, ALL CONTACTS POWERED&lt;br&gt;
 RATING CONDITIONS: EIA-364-070 METHOD 2, 30 C MAXIMUM&lt;br&gt;
 TEMPERATURE RISE, 20% DERATED. REFERENCE APPROPRIATE&lt;br&gt;
 3M PRODUCT SPECIFICATION FOR DETAILED CURRENT DERATING CURVES.&lt;br&gt;
 INSULATION RESISTANCE: &gt;1 X 10e9 AT 500 VDC&lt;br&gt;
 WITHSTANDING VOLTAGE: 1,000VRMS AT SEA LEVEL&lt;br&gt;</description>
<gates>
<gate name="1" symbol="3M_N3431" x="7.62" y="-27.94"/>
</gates>
<devices>
<device name="" package="3M_N3431-5302RB">
<connects>
<connect gate="1" pin="P$1" pad="1"/>
<connect gate="1" pin="P$10" pad="10"/>
<connect gate="1" pin="P$11" pad="11"/>
<connect gate="1" pin="P$12" pad="12"/>
<connect gate="1" pin="P$13" pad="13"/>
<connect gate="1" pin="P$14" pad="14"/>
<connect gate="1" pin="P$15" pad="15"/>
<connect gate="1" pin="P$16" pad="16"/>
<connect gate="1" pin="P$17" pad="17"/>
<connect gate="1" pin="P$18" pad="18"/>
<connect gate="1" pin="P$19" pad="19"/>
<connect gate="1" pin="P$2" pad="2"/>
<connect gate="1" pin="P$20" pad="20"/>
<connect gate="1" pin="P$21" pad="21"/>
<connect gate="1" pin="P$22" pad="22"/>
<connect gate="1" pin="P$23" pad="23"/>
<connect gate="1" pin="P$24" pad="24"/>
<connect gate="1" pin="P$25" pad="25"/>
<connect gate="1" pin="P$26" pad="26"/>
<connect gate="1" pin="P$27" pad="27"/>
<connect gate="1" pin="P$28" pad="28"/>
<connect gate="1" pin="P$29" pad="29"/>
<connect gate="1" pin="P$3" pad="3"/>
<connect gate="1" pin="P$30" pad="30"/>
<connect gate="1" pin="P$31" pad="31"/>
<connect gate="1" pin="P$32" pad="32"/>
<connect gate="1" pin="P$33" pad="33"/>
<connect gate="1" pin="P$34" pad="34"/>
<connect gate="1" pin="P$4" pad="4"/>
<connect gate="1" pin="P$5" pad="5"/>
<connect gate="1" pin="P$6" pad="6"/>
<connect gate="1" pin="P$7" pad="7"/>
<connect gate="1" pin="P$8" pad="8"/>
<connect gate="1" pin="P$9" pad="9"/>
</connects>
<technologies>
<technology name=""/>
</technologies>
</device>
</devices>
</deviceset>
<deviceset name="ATLAS_EZO">
<gates>
<gate name="G$1" symbol="ATLAS_EZO" x="0" y="0"/>
</gates>
<devices>
<device name="" package="ATLAS_EZO">
<connects>
<connect gate="G$1" pin="GND" pad="GND"/>
<connect gate="G$1" pin="PGND" pad="PGND"/>
<connect gate="G$1" pin="PRB" pad="PRB"/>
<connect gate="G$1" pin="RX" pad="RX"/>
<connect gate="G$1" pin="TX" pad="TX"/>
<connect gate="G$1" pin="VCC" pad="VCC"/>
</connects>
<technologies>
<technology name=""/>
</technologies>
</device>
</devices>
</deviceset>
</devicesets>
</library>
</drawing>
</eagle>
