<?xml version="1.0" encoding="utf-8"?>
<!DOCTYPE eagle SYSTEM "eagle.dtd">
<eagle version="7.4.0">
<drawing>
<settings>
<setting alwaysvectorfont="no"/>
<setting verticaltext="up"/>
</settings>
<grid distance="0.1" unitdist="inch" unit="inch" style="lines" multiple="1" display="no" altdistance="0.01" altunitdist="inch" altunit="inch"/>
<layers>
<layer number="1" name="Top" color="4" fill="1" visible="yes" active="yes"/>
<layer number="16" name="Bottom" color="1" fill="1" visible="yes" active="yes"/>
<layer number="17" name="Pads" color="2" fill="1" visible="yes" active="yes"/>
<layer number="18" name="Vias" color="2" fill="1" visible="yes" active="yes"/>
<layer number="19" name="Unrouted" color="6" fill="1" visible="yes" active="yes"/>
<layer number="20" name="Dimension" color="15" fill="1" visible="yes" active="yes"/>
<layer number="21" name="tPlace" color="7" fill="1" visible="yes" active="yes"/>
<layer number="22" name="bPlace" color="7" fill="1" visible="yes" active="yes"/>
<layer number="23" name="tOrigins" color="15" fill="1" visible="yes" active="yes"/>
<layer number="24" name="bOrigins" color="15" fill="1" visible="yes" active="yes"/>
<layer number="25" name="tNames" color="7" fill="1" visible="yes" active="yes"/>
<layer number="26" name="bNames" color="7" fill="1" visible="yes" active="yes"/>
<layer number="27" name="tValues" color="7" fill="1" visible="yes" active="yes"/>
<layer number="28" name="bValues" color="7" fill="1" visible="yes" active="yes"/>
<layer number="29" name="tStop" color="7" fill="3" visible="no" active="yes"/>
<layer number="30" name="bStop" color="7" fill="6" visible="no" active="yes"/>
<layer number="31" name="tCream" color="7" fill="4" visible="no" active="yes"/>
<layer number="32" name="bCream" color="7" fill="5" visible="no" active="yes"/>
<layer number="33" name="tFinish" color="6" fill="3" visible="no" active="yes"/>
<layer number="34" name="bFinish" color="6" fill="6" visible="no" active="yes"/>
<layer number="35" name="tGlue" color="7" fill="4" visible="no" active="yes"/>
<layer number="36" name="bGlue" color="7" fill="5" visible="no" active="yes"/>
<layer number="37" name="tTest" color="7" fill="1" visible="no" active="yes"/>
<layer number="38" name="bTest" color="7" fill="1" visible="no" active="yes"/>
<layer number="39" name="tKeepout" color="4" fill="11" visible="yes" active="yes"/>
<layer number="40" name="bKeepout" color="1" fill="11" visible="yes" active="yes"/>
<layer number="41" name="tRestrict" color="4" fill="10" visible="yes" active="yes"/>
<layer number="42" name="bRestrict" color="1" fill="10" visible="yes" active="yes"/>
<layer number="43" name="vRestrict" color="2" fill="10" visible="yes" active="yes"/>
<layer number="44" name="Drills" color="7" fill="1" visible="no" active="yes"/>
<layer number="45" name="Holes" color="7" fill="1" visible="no" active="yes"/>
<layer number="46" name="Milling" color="3" fill="1" visible="no" active="yes"/>
<layer number="47" name="Measures" color="7" fill="1" visible="no" active="yes"/>
<layer number="48" name="Document" color="7" fill="1" visible="yes" active="yes"/>
<layer number="49" name="Reference" color="7" fill="1" visible="yes" active="yes"/>
<layer number="51" name="tDocu" color="7" fill="1" visible="yes" active="yes"/>
<layer number="52" name="bDocu" color="7" fill="1" visible="yes" active="yes"/>
<layer number="90" name="Modules" color="5" fill="1" visible="yes" active="yes"/>
<layer number="91" name="Nets" color="2" fill="1" visible="yes" active="yes"/>
<layer number="92" name="Busses" color="1" fill="1" visible="yes" active="yes"/>
<layer number="93" name="Pins" color="2" fill="1" visible="yes" active="yes"/>
<layer number="94" name="Symbols" color="4" fill="1" visible="yes" active="yes"/>
<layer number="95" name="Names" color="7" fill="1" visible="yes" active="yes"/>
<layer number="96" name="Values" color="7" fill="1" visible="yes" active="yes"/>
<layer number="97" name="Info" color="7" fill="1" visible="yes" active="yes"/>
<layer number="98" name="Guide" color="6" fill="1" visible="yes" active="yes"/>
</layers>
<library>
<packages>
<package name="DO-214AB">
<smd name="C$1" x="3.1115" y="0" dx="1.524" dy="3.0734" layer="1"/>
<smd name="A$1" x="-3.1115" y="0" dx="1.524" dy="3.0734" layer="1"/>
<wire x1="3.556" y1="3.1115" x2="3.556" y2="-3.1115" width="0.127" layer="21"/>
<wire x1="3.556" y1="-3.1115" x2="-3.556" y2="-3.1115" width="0.127" layer="21"/>
<wire x1="-3.556" y1="-3.1115" x2="-3.556" y2="3.1115" width="0.127" layer="21"/>
<wire x1="-3.556" y1="3.1115" x2="3.556" y2="3.1115" width="0.127" layer="21"/>
<rectangle x1="1.27" y1="-2.54" x2="2.54" y2="2.54" layer="21"/>
<wire x1="-2.54" y1="0" x2="1.27" y2="0" width="0.127" layer="21"/>
<wire x1="1.27" y1="0" x2="0" y2="1.27" width="0.127" layer="21"/>
<wire x1="0" y1="1.27" x2="0" y2="-1.27" width="0.127" layer="21"/>
<wire x1="0" y1="-1.27" x2="1.27" y2="0" width="0.127" layer="21"/>
</package>
</packages>
<symbols>
<symbol name="SCHOTTKY">
<pin name="A$1" x="-5.08" y="0" length="point" rot="R90"/>
<pin name="C$1" x="2.54" y="0" length="point" rot="R270"/>
<wire x1="-2.54" y1="2.54" x2="0" y2="0" width="0.254" layer="94"/>
<wire x1="0" y1="0" x2="-2.54" y2="-2.54" width="0.254" layer="94"/>
<wire x1="-2.54" y1="-2.54" x2="-2.54" y2="0" width="0.254" layer="94"/>
<wire x1="-2.54" y1="0" x2="-2.54" y2="2.54" width="0.254" layer="94"/>
<wire x1="0" y1="0" x2="0" y2="-2.54" width="0.254" layer="94"/>
<wire x1="0" y1="-2.54" x2="-0.508" y2="-2.54" width="0.254" layer="94"/>
<wire x1="-0.508" y1="-2.54" x2="-0.508" y2="-2.032" width="0.254" layer="94"/>
<wire x1="0" y1="0" x2="0" y2="2.54" width="0.254" layer="94"/>
<wire x1="0" y1="2.54" x2="0.508" y2="2.54" width="0.254" layer="94"/>
<wire x1="0.508" y1="2.54" x2="0.508" y2="2.032" width="0.254" layer="94"/>
<text x="-2.54" y="3.302" size="1.778" layer="95">&gt;NAME</text>
<text x="-5.08" y="-5.08" size="1.778" layer="96">&gt;VALUE</text>
<wire x1="-5.08" y1="0" x2="-2.54" y2="0" width="0.254" layer="94"/>
<wire x1="0" y1="0" x2="2.54" y2="0" width="0.254" layer="94"/>
</symbol>
</symbols>
<devicesets>
<deviceset name="SCHOTTKY_SK">
<gates>
<gate name="G$1" symbol="SCHOTTKY" x="-2.54" y="0"/>
</gates>
<devices>
<device name="" package="DO-214AB">
<connects>
<connect gate="G$1" pin="A$1" pad="A$1"/>
<connect gate="G$1" pin="C$1" pad="C$1"/>
</connects>
<technologies>
<technology name=""/>
</technologies>
</device>
</devices>
</deviceset>
</devicesets>
</library>
</drawing>
</eagle>
